*** Life<FredkinCell> 10x10 ***

Generation = 0, Population = 100.
0000000000
0000000000
0000000000
0000000000
0000000000
0000000000
0000000000
0000000000
0000000000
0000000000

Generation = 1, Population = 32.
-11111111-
1--------1
1--------1
1--------1
1--------1
1--------1
1--------1
1--------1
1--------1
-11111111-

*** Life<FredkinCell> 10x10 ***

Generation = 0, Population = 99.
0000000000
000-000000
0000000000
0000000000
0000000000
0000000000
0000000000
0000000000
0000000000
0000000000

Generation = 1, Population = 34.
-11-11111-
1-1-1----1
1--1-----1
1--------1
1--------1
1--------1
1--------1
1--------1
1--------1
-11111111-

*** Life<FredkinCell> 10x10 ***

Generation = 0, Population = 98.
-000000000
000-000000
0000000000
0000000000
0000000000
0000000000
0000000000
0000000000
0000000000
0000000000

Generation = 1, Population = 32.
--1-11111-
--1-1----1
1--1-----1
1--------1
1--------1
1--------1
1--------1
1--------1
1--------1
-11111111-

*** Life<FredkinCell> 10x10 ***

Generation = 0, Population = 97.
--00000000
000-000000
0000000000
0000000000
0000000000
0000000000
0000000000
0000000000
0000000000
0000000000

Generation = 1, Population = 33.
0---11111-
-11-1----1
1--1-----1
1--------1
1--------1
1--------1
1--------1
1--------1
1--------1
-11111111-

*** Life<FredkinCell> 10x10 ***

Generation = 0, Population = 96.
--00000-00
000-000000
0000000000
0000000000
0000000000
0000000000
0000000000
0000000000
0000000000
0000000000

Generation = 1, Population = 32.
0---11-0--
-11-1--1-1
1--1-----1
1--------1
1--------1
1--------1
1--------1
1--------1
1--------1
-11111111-

*** Life<FredkinCell> 10x10 ***

Generation = 0, Population = 95.
----000000
000-000000
0000000000
0000000000
0000000000
0000000000
0000000000
0000000000
0000000000
0000000000

Generation = 1, Population = 35.
0000-1111-
-1-01----1
1--1-----1
1--------1
1--------1
1--------1
1--------1
1--------1
1--------1
-11111111-

*** Life<FredkinCell> 10x10 ***

Generation = 0, Population = 90.
---------0
000-000000
0000000000
0000000000
0000000000
0000000000
0000000000
0000000000
0000000000
0000000000

Generation = 1, Population = 38.
000-0000-1
-1-0-11111
1--1-----1
1--------1
1--------1
1--------1
1--------1
1--------1
1--------1
-11111111-

*** Life<FredkinCell> 10x10 ***

Generation = 0, Population = 94.
-----00000
000-000000
0000000000
0000000000
0000000000
0000000000
0000000000
0000000000
0000000000
0000000000

Generation = 1, Population = 32.
000---111-
-1-0-----1
1--1-----1
1--------1
1--------1
1--------1
1--------1
1--------1
1--------1
-11111111-

*** Life<FredkinCell> 10x10 ***

Generation = 0, Population = 85.
----------
-----00000
0000000000
0000000000
0000000000
0000000000
0000000000
0000000000
0000000000
0000000000

Generation = 1, Population = 37.
-----00000
0000--111-
-1111----1
1--------1
1--------1
1--------1
1--------1
1--------1
1--------1
-11111111-

*** Life<FredkinCell> 10x10 ***

Generation = 0, Population = 96.
--00000000
000-000000
0000000000
0000000000
0000000000
0000000000
0000000000
0000000000
0000000000
000000000-

Generation = 1, Population = 31.
0---11111-
-11-1----1
1--1-----1
1--------1
1--------1
1--------1
1--------1
1--------1
1---------
-1111111--

*** Life<FredkinCell> 10x10 ***

Generation = 0, Population = 6.
000000----
----------
----------
----------
----------
----------
----------
----------
----------
----------

Generation = 1, Population = 9.
1----10---
000000----
----------
----------
----------
----------
----------
----------
----------
----------