*** Life<Cell> 15x15 ***

Generation = 0, Population = 24.
---------------
0--000-----0---
--0--0------0--
0--------0-----
---------------
0------0-0-----
--00-------0---
---------------
---------------
--0--0--0------
--0-----0---0--
---------------
-------------0-
0--------------
---------------

Generation = 1, Population = 70.
0--000-----0---
-0-1--0---0----
-0---10--0---0-
-00--0--0-0-0--
-------0-------
-000--0---00---
00110--0-00-0--
--00-------0---
--0--0--0------
-0100-0010--0--
-010-0-010-0-0-
--0-----0---00-
0-----------0-0
-0-----------0-
0--------------

Generation = 2, Population = 67.
--0--1------0--
-1-*-010-----0-
0--00--0--0---0
0-1001---0-----
---0-0-----00--
--1--0-0---1---
11--10---1---0-
0-1--0-000-----
---0----1--00--
0--11-11--0----
0---0-0------10
0-1--0--1------
--0-----0--01--
0-0------------
-------------0-

Generation = 3, Population = 116.
----0*-0---0---
--0*0---0-0----
1--1-1-10--0---
1-*-1-000--00-0
0-010-00-00-10-
0-------000*-0-
-*11*10--*000-0
10---1-11-0000-
---1-000*--110-
101----*-0--000
-01-101-1-0-0*1
1-*0---0*0-0000
-0-0-0-01001*0-
--10----0--000-
0-0---------0-0

Generation = 4, Population = 59.
--0--*------0--
011.-0-01--0---
*00*--0-10-1--0
--*-*1-------0-
---------------
1----0--1--.-1-
1.--**1-0.-----
*--------0-----
--------.----1-
*1--1-1.----1--
0-*0*-*-*--01.*
--.-----.------
---------1--.1-
0---00--1------
--1-----0---10-

Generation = 5, Population = 115.
0-100.000----0-
-**.0111--01--0
*1-.-1-1-1-*0--
1-*0**--00-00--
0-0-0---0------
*0---1-0*0-.0-0
-*-1***-1*---0-
.0--010---0--0-
-0--0-0-.0----0
**--*-**1---*-0
10*-*-.-.001-*.
1-.00-0-.0-0000
0---00----0-.-0
-0101100*---0--
00-000-010-0*10

*** Life<Cell> 15x15 ***

Generation = 0, Population = 22.
---------------
---------------
---0-----------
-------0----0--
0---0000-------
---------------
---------------
--------000----
-0-0-----0-----
0------------0-
-----0---0-----
---------------
0--00------0---
---------------
---------------

Generation = 1, Population = 63.
---------------
---0-----------
--0-0--0----0--
0--000-10--0-0-
-0-01---0---0--
0---0000-------
--------000----
-0-0---01110---
----0----1---0-
---0-0------0-0
0---0-0-0-0--0-
0--000---0-0---
-00110----0-0--
0--00------0---
---------------

Generation = 2, Population = 66.
---0-----------
-------0----0--
00--1-01-------
-----1---00---0
0---*00010-----
-------1000-0--
00-00000-1-----
0-----01*-*100-
-0-0---0-*-0---
0-0-----0000---
10-01----0-----
1------------0-
01----0------0-
---------------
0--00------0---

Generation = 3, Population = 108.
--0-0--0----0--
00-00--10--0-0-
1100-01-000-0-0
-0--0*0---10-0-
-0-0*1-1*10-0-0
-0-0--0*1-1--0-
-1-1--11-*00-0-
10--0---.-.*-10
0-0-0--1-.---0-
1--00---1---0--
*101*0---1-0-0-
-0-00-0--0--010
-*0--0-0----010
-0-00-0----0-0-
-00110----0-0--

Generation = 4, Population = 62.
0--01001-------
---------------
-------1-------
---0-.---0*1--0
0---.---.-10---
0------.-----1-
---*-0--0*1----
----100-*1.*-*1
-0-0-00--.-0-1-
--0-1--------0-
**--.1---*---1-
--------010----
0*111---00-----
0------------1-
0--**1---0-0---

Generation = 5, Population = 103.
-001---*0------
0--0000--------
---0--1-0000--0
0-0-0.-101.-00-
10-0.---.---000
10-0-0-.10-00-0
0-0.01-1-.*---0
-0-0*---*-.*-**
0-0----10.01---
10-0-00--0-00-0
.*--.-0--*--0*0
--0000-0--10-1-
-*--*0-0-----1-
--0--0--0--00-0
100.**0-0---00-

*** Life<Cell> 15x15 ***

Generation = 0, Population = 22.
---0-----------
-----0---------
---------------
0----0-----0---
-----------0---
-----0---------
-0------0----0-
------0------0-
-0-----0-------
---------------
0--0------0----
0-0-------0-0--
---0-----------
---------------
---------------

Generation = 1, Population = 64.
--0-00---------
---00-0--------
0----------0---
-0--0-0---010--
0---------010--
-0--0-0-0--0-0-
0-0--000-0--010
-----0--0---010
0-0-----0----0-
00-0---0--0----
10--0----0100--
1--0-----01--0-
0---0-----0-0--
---0-----------
---------------

Generation = 2, Population = 71.
-0-0-1---------
0--1-0-0---0---
---0-------1---
0-00---0-0---0-
-0------00-----
0--0-010---1-1-
-0-0--11--0----
----01--1--0---
10---0--100--1-
1-0---0---1-00-
*-00-0-00---1--
--0-0---0-*-0-0
10-0-0----1----
0-0-------0-0--
---0-----------

Generation = 3, Population = 93.
---1-*00---0---
--0--1--0-010--
----00---00*00-
-01-0-0-01010-0
0----0001-01---
-001-1*--0----0
---1-0---0-0-1-
0---1---*-0-01-
-1---1-0-----*0
-01--0----*---0
.-110-01-0-0--0
--1--0--1-.-1--
-1--0-0-00-0--0
10-0-0---01--0-
0---0-----0-0--

Generation = 4, Population = 60.
-----*-1---1---
-0-------0-----
-0-0----0--.-1-
-1*-1-10-*---0-
-0-0-----------
-1---*.--1-----
00-*01---10-0*-
-----1--*0-01*-
-*---*-------.-
1----1----*----
.-*-1-1*0-1--01
--*-0-0-*0.0-0-
-*--------1----
---------------
1---------1----

Generation = 5, Population = 102.
-0--0.--000-0--
0101-1-0--01-0-
0-0---0--0-.0*0
0*.---*10.0-010
0-0--000-----0-
--0--*.-0*--01-
1--.-*1--*10-*0
0--0--00*-01**0
-.0-0*0-10000.-
--1--*-000.0-00
.0.-*0-.-0*-1-*
--*-1-10*1.--1-
1.--0-0-0----0-
10-------------
-0-------0-0---

*** Life<Cell> 15x15 ***

Generation = 0, Population = 24.
---------0-----
---------0-----
0----------0---
00------0------
-0---0----00---
---0-----------
-----0---------
------00---0---
---------------
---------0-----
---------0--0--
-------00------
-00------------
----------0----
---------------

Generation = 1, Population = 73.
--------010----
0-------0100---
1-------000-0--
--0--0-0-00----
-1000-0-00110--
-00-0-----00---
---00--0---0---
------110-0-0--
------00-0-0---
--------010-0--
-------0-100-0-
-00---011---0--
0110---00-0----
-00------0-0---
----------0----

Generation = 2, Population = 69.
0------0-*-----
10-----01--1---
*00--0----10-0-
0-1---0--11----
0----0-011-*10-
0----0000--1---
-0-1-0-1--01---
---000--10---0-
-----0---1--0--
------001------
-00----1--11--0
-----01--------
1--10----0--0--
-------0----0--
-00------------

Generation = 3, Population = 121.
1-----010.00---
*----00-*--*00-
.1-00--00-----0
-0*0-0-----00--
-10-01--*-1*-10
1--001-------0-
---*0-0*0-1-00-
-00--11-*--0--0
---0-1-00*00---
-00---11*-000-0
0110-00*-1**00-
0000-1*--0000-0
-11*1-000-0010-
00000-0-00-010-
0110---0----0--

Generation = 4, Population = 70.
*0-------*1--0-
*--0-1--.1-*-1-
**0-10-1-0-----
01.--100----1--
-----*00.-**1-1
-------0---1---
00-.---.---11--
0110----.-01---
--0--*---.11---
---0-0--.-1--0-
-------.0-..-10
---10-.1----1--
1*-.-01--------
------1--10---0
-**------0--1--

Generation = 5, Population = 117.
*100-0--0**-010
.0--0*00.-0.-*0
..10*10*-11000-
--*--*11011-*00
01--0*11*1*.---
10---1-10---0-0
---.---.---**0-
-**101--.0-*---
0-100.0--**-00-
-----11-.1*-01-
----00-.-1..--1
000*1-*----0--0
*.1.-1---00-1-0
0-0---*00-1010-
0..0--0-01-0-00

*** Life<Cell> 15x15 ***

Generation = 0, Population = 22.
--0-0--0-----0-
----0----------
---------------
---------------
--0---0--0-----
-0-------------
-0----0--------
------0--------
0-0-----0------
---------------
-0-------------
------0--0--0--
------0--------
--0--0---------
---------------

Generation = 1, Population = 69.
-0--100-0---0-0
--0010-0-----0-
----0----------
--0---0--0-----
---0-0-00-0----
01-------0-----
010--010-------
000--0100------
---0--00-0-----
000-----0------
0-0---0--0--0--
-0---0100-00-0-
--0---10-0--0--
-0-00----------
--0--0---------

Generation = 2, Population = 61.
0----110-0-0-0-
--1---0--------
----1-00-0---0-
-0--0----------
00----011--0---
---0--0--------
1--00-*--0-----
-1--0---1------
--0-0-----0----
---------0--0--
1-10--1-0------
--0-01-11-11--0
-0--0---0------
0--11-00-0--0--
------0--------

Generation = 3, Population = 103.
-00-1**1------0
00-01--0---0---
-000*--1--0-0-0
-10010--00-0-0-
1-0000--*00-0--
-101-0--00-0---
--0---.0--0----
-----010--0----
----10--0--00--
0--00-0----0-0-
---1---01-000-0
0-10-*1**-**00-
------101-000-0
--0*---10-00-0-
0--0001--0--0--

Generation = 4, Population = 60.
--10-**-0--0-0-
11--*---0------
-11-.-0*-----0-
------0--------
--1-1101.-1----
-*--010--------
--1---.1--1----
--0------01-0--
0-----0--0--1--
-00--0---------
-----01--------
--*--**..-..-10
0-------*-1----
001*-00--0-----
-0----*--------

Generation = 5, Population = 99.
0-*11*.-100---0
*-1-*---10-0---
--*0.0-*----0-0
-1--1--0--0--0-
-----*-*.0-0---
0*01-*-0-------
--*000*-0-*00--
0110--101---10-
-------001-0*0-
-110010--0--0--
-0--01-0-----00
00.00***.-..0*1
1--0---0.0-0-00
-1-.-1-1-------
-1-0--*0-0-----

*** Life<Cell> 15x15 ***

Generation = 0, Population = 24.
-------0-0-----
--0------------
0-0-------0----
---------0---0-
-0--------0----
--------0-0-0--
---------------
-00------------
--0-------0----
---------------
-0-------0-0---
----00---------
---------0--0--
---------------
---------------

Generation = 1, Population = 71.
--0---0---0----
0010---0-00----
--10-------0-0-
000-----0-0-0-0
0-0-----0-1000-
-0-----0--1--0-
-00-----0-0-0--
01-0------0----
--10-----0-0---
-00------000---
0-0-00--0---0--
-0-0110----00--
----00--0-00-0-
---------0--0--
---------------

Generation = 2, Population = 75.
0-1--0----10---
1---0----1---0-
-0*-0--0000-0--
--1----01-1-1--
1-10----1-*-1--
-10---0-00--010
-11------------
1--10---0-1-0--
00--0---01-10--
-11-00---------
--10---0--0010-
--01--10-------
-0-----0-01---0
----00---------
---------0--0--

Generation = 3, Population = 113.
1--0--0---*100-
*--01--0-*00--0
-1*-100-11--1--
0---0-0-*0---0-
-0*10-0--0*---0
--1--0---1-0--1
----0-0--00--00
*1-*-0-010-010-
-------0-*0*-0-
---0-100000--0-
--*--0-1001--10
----11*100-0000
0--000-1-1*0-0-
-0-01100--0-0-0
----00--0-00-0-

Generation = 4, Population = 69.
*011-0----.*-1-
*-----0-0.1-0--
0**0*--0-*----0
-0---0--.1-----
-1*--010-1.---1
--*-0-0-0---0--
011------110---
.*-.0-0--1---1-
00-------.1.0-0
--------1-1-0--
-0.----*-----*-
0-0---.-11-----
--0--1--0-.--10
---------------
-0---------10--

Generation = 5, Population = 100.
*--*----0-.*0-0
.0--1--0-*-0--0
-.*-*---1*--10-
--10-1--.-1----
1-*1--*11*.-10-
01.--010-11--11
1*-0-------1-0-
..-.---01*10---
1-1-0-0-0.*.10-
0---------*-1-0
--.---0*001--.0
-011-1.--*0---0
00100-011-.-0*1
-00--1--0--0000
0-0-------0*10-

*** Life<Cell> 15x15 ***

Generation = 0, Population = 23.
-----------0---
0--------------
-------0-------
------0--------
0--0---------0-
--0------------
---------------
----00---------
-00------------
---0-----------
--0-----0------
---------0--0--
--0-0----00----
------0------0-
---------------

Generation = 1, Population = 63.
0---------0-0--
-0-----0---0---
0-------0------
0--0-0-------0-
-0--0-0-----0-0
00-----------0-
--0-00---------
-000110--------
011-00---------
-00-0---0------
-0-----0----0--
----0----1-0-0-
-0---00-0-1000-
--0-00-0-00-0-0
------0------0-

Generation = 2, Population = 68.
-------0-0-0-0-
0-0---0--------
1--0-0---0-0-0-
1-0-0---0------
010--0-0---0---
1----00--------
0010---------0-
------10-------
1-*01---0------
-1--1----0--0--
01----0--0-----
---0--00--01-10
0---0-10---11--
----1---01-01--
--0-0----00----

Generation = 3, Population = 90.
0-0-----------0
1--------------
-00-0---------0
-010-0-------0-
1--0-10---0-0--
-0-00-1----0-0-
---100-0----0-0
-0--11*1-----0-
-1*--00-----0--
0*--*00--100-0-
1-00001-01-0000
-00--01-0-1-0*1
-0--1----0-*--0
0-00-00-1-0--0-
-0--10----1-0--

Generation = 4, Population = 61.
1--0---------0-
*---0----------
---0-----------
--*-01----0----
-1--0--0-0-0-0-
---1--*--------
--1----10------
01----.-0---0--
-**0111--00--0-
-.0-.-10-----1-
*---1-*-----1--
----0---1----.*
-10--0--0--*-01
--11--1--11----
----*---00*----

Generation = 5, Population = 96.
*00---------0-0
.0-0-0-------0-
1---00----0----
--*0-*00-----0-
1---1-----0---0
-0---0*000-0-0-
0------*-0--0--
1-0011*-1-00---
-..------110-10
0.1-.-*1010--*0
.100*-*-0--0--0
00001-10*1-10.*
0*-----01--.-1-
---*---01----00
--0-.00011*0---

*** Life<Cell> 15x15 ***

Generation = 0, Population = 25.
--0---0--0-----
--------0------
--0------0--0--
---------0-0---
--0-----0--0---
---------------
0----0---------
---------------
-------0-------
-----0-----00--
----0-----0----
----0-----0----
-----------0-0-
---------0-----
---------------

Generation = 1, Population = 62.
-0-0-0-0--0----
------00-0--0--
-0-0-----10--0-
---------1-1---
-0-0---0--010--
0-0--0--0--0---
-0--0-0--------
0----0-0-------
-----00-0--00--
------00---110-
---01----01-0--
---010---01--0-
----0----0----0
--------0-00-0-
---------0-----

Generation = 2, Population = 73.
0-----010--00--
------1--100---
0---0-000*1---0
-------00*-*-0-
--0-000---1-10-
---------0-1---
0--0----0--0---
-----1-----00--
0---0----00----
---00--1-0---10
--0---000--010-
--0--10-01-0---
----1----100-0-
----0--0--11---
-----------0-0-

Generation = 3, Population = 99.
-0---0--1---10-
----00-00-1---0
-0-0---11.-0---
0-0--00-1.-*01-
-0--1-1-00--*-0
0-00000---0*-0-
-00-00-0--0----
---0--0-00--10-
-0--1--00-1-000
0--1-0-*01-1--1
-01-1--1-01----
-010-*-0--1----
--00*-00--11--0
---0100-0--*0--
----0--0---1--0

Generation = 4, Population = 66.
0-0--10-*000*1-
----1---1---0--
--0-----*.-1-00
-----1-0-.0*1*-
0-0-*----1-1.--
-----1--0--*0--
-1--------1-0--
----0----100---
--00----1--0-1-
-0-----.1-----*
-----00-0-----0
0----*0-0-----0
----.----1---0-
---------0-.10-
----1-----0*-0-

Generation = 5, Population = 95.
---0-*1-*---**0
0--0--10--10100
-0-000--**-*--1
0--------*1.-*-
----*0-0--1-.0-
000---00---.-0-
0-0-00--0-*-10-
-00--1---*1--0-
--11---0*--1---
0--1-00.-1-1--*
00--1----0---0-
-0--1*--1-----1
0---.00--*1--1-
----1---01-**10
---0-0----1*010

*** Life<Cell> 15x15 ***

Generation = 0, Population = 24.
--------0------
---------------
-----000-------
----------0----
-----------0---
----0----------
--0------------
----0-0-0------
----0-0--0-----
-----------0---
0------0--0----
00-------------
-0----------0--
---0-----0-----
---------------

Generation = 1, Population = 63.
-------0-0-----
-----0000------
----01-10-0----
-----000-0-----
----0-------0--
--00-0-----0---
-0-0--0-0------
--001-1--------
---01-10--00---
0---0-00-0--0--
1-----0-00-----
--0----0--0-0--
-100-----0-0-0-
-00-0---0-0-0--
---0-----0-----

Generation = 2, Population = 66.
-----0-10-0----
----------0----
---01*-*-0-0---
----0---0---0--
--0--000-0---0-
--1-0---0-0----
0-----1--0-0---
--1-----0-00---
0---*-*-0-11---
10--1-1-01---0-
*00-001-1------
0-1------0-0---
0--1---0------0
0----0-0---0---
-0----------0--

Generation = 3, Population = 93.
----0--*1-10---
---00---0-1----
--01**-.0-0----
--0-1000-0-----
-01001-1------0
00*----------0-
-0--00-00--10--
-0-01--010-10--
1-00.-.--0--00-
*--0-0--1*-00-0
.1------*0-0-0-
-0*-0000----0-0
-1--000100---0-
1--00--10-0---0
--0--0-0-----0-

Generation = 4, Population = 77.
----100*---10--
----1----------
-0-*..-.1010---
----*---0-----0
----1-0*00-----
1-.-----0--0---
-----1----0----
-11---1-*---1--
*011.0.00-1111-
*--1--10-.-----
**-00-1-.--1--0
01*--11-0------
-*--111-11----0
---1-0-*-0-0-0-
00-----1--0-0--

Generation = 5, Population = 100.
---0---.1-1*10-
-0--*-00001-0--
0--**.-.---10-0
-0--*00--000-0-
0--0*-1.-100--0
-0.-000-1---0--
000-0----0--0--
-----0-0*0--*--
*1*-*-.---*-**0
.0-------.0-000
..0-10--.-0-00-
--.-0-*-1--0---
-*--*--1--00---
1-0-010*010-0--
1100-00*0--0---

*** Life<Cell> 15x15 ***

Generation = 0, Population = 22.
-0-------------
---------------
-----0---------
--0---------00-
---------------
---00--------0-
---------------
---0-----0--0--
---0-----------
----0-0-----0--
0-----------0--
--0------------
--00---0-------
-----0---------
---------------

Generation = 1, Population = 70.
0-0------------
-0---0---------
--0-0-0-----00-
-0-0-0-----0110
--000-------0--
--0110------0-0
----0----0--00-
--010---0-00-0-
--01--0--0-----
0------0---010-
-00-0-0----010-
001----0----0--
-0-1000-0------
--000-00-------
-----0---------

Generation = 2, Population = 64.
-0-0-0---------
--0---------00-
-0-0---0-------
0--1------01-*1
-----0---------
-0-*-10--0-0-0-
---0-----------
-0-*-000--11010
00---0------0--
---00-0-000-*-0
0------0--0---0
1----00-----1--
-1--1----0--0--
--11---1-------
--00---0-------

Generation = 3, Population = 108.
0-0---0-----00-
-0-0-0-0---0110
--010-0-0-000-0
--0*00-0-01*-.*
00--01---00---0
0--.--100-----0
--0-0--0-00-0-0
-1-.---100*-1-1
1-0--10000-----
-00110-01---.-1
10-0000---10-01
*----11--000*00
------000-0010-
------0*00--0--
-0--0-010------

Generation = 4, Population = 66.
-0-------------
---10--------*-
---------0---0-
0--.--0-0--.-.*
-1-----------0-
1-0*--*110--00-
0----0------1--
--0*00-*1-.-*-*
--1---------0--
0-1**1----00.-*
--0-1---0---1-*
*--0--*--1--.--
0-----11---1---
-0--001.-1--1--
0-00---*----0--

Generation = 5, Population = 102.
0-000--------0-
-00*10---0--1.0
0--10-0---0-01-
---.-0-----.-**
0--0---0-0---1-
*01.1-*--100--0
10---1---0-0--0
01-*---.*0.1*-.
10-1---00-0-10-
--*.**0-1011*0.
-01-*-00--1---.
.0---1*---00.-0
1--11-**0-0----
0---1--.0-0-*0-
-011-0-.00-010-

*** Life<Cell> 15x15 ***

Generation = 0, Population = 25.
----0----------
-------------0-
--0----0-------
---------0-----
------0-0---0--
---------0-----
--0---------0--
----0-------0--
-------------0-
------0-----0--
-0-0--0--------
---------------
00-----0-0-----
--------0----0-
---------------

Generation = 1, Population = 72.
---0-0-------0-
--0-0--0----0-0
-0-0--0-00---0-
--0---00--0-0--
-----0---0-0-0-
--0---0---0----
-0-00----0-010-
--00-0-----01--
----0-0-----0-0
-0-0-010---0---
0---0010----0--
0--0--00-0-----
110---0-0-0--0-
00----------0-0
--------0----0-

Generation = 2, Population = 76.
----0-00-------
---------0-0---
0----01-11--0--
-------1-0-0-0-
----0-000---0-0
----0--0-0-00--
0---1-0-0-0-*10
--1------00-*-0
-000--1----01--
--------0-0-0-0
1--011-100---0-
------1-0---00-
**1--010-0-0---
------0---00---
00-----0-0-----

Generation = 3, Population = 119.
---0--1100-0---
0---00-0-1-----
-0--01*0**00---
0---000*-1-----
---01-1-10-010-
0--0-001--011--
-000*--0--10.--
0-*-0----1-0.01
011100-00001*0-
000-001-10-010-
-001-*1*-1--01-
-00000*-10--1-0
.**001-10-01-0-
--0---10-01-0--
110--------0---

Generation = 4, Population = 67.
0-0---**----0--
---------------
0-001-.-..-10--
----11-.----00-
--0-----*-0-*10
-----11--------
0111.--10--1.10
1-.------*--.-*
1*----111---.1-
--1------10--10
-1---.-.--0-1--
01--1-.-----*--
...11------*---
00--0-*-01-----
*--0--00-0-----

Generation = 5, Population = 104.
---0-0..0--0-0-
---00-00---0---
--1---.-..0*---
0----*0.0-0-1--
-0-01-10.---**1
00-00**---011--
---*.0-*1-1-.*-
-0.0--0-0*00*0*
-*---0*-*00-.*0
00-0--10-*-0--1
-*--1.-.--1-*-0
1-0-*0.---0-*0-
..***11-000.---
-1001-*01-10---
*-0--0-1010----

*** Life<Cell> 15x15 ***

Generation = 0, Population = 25.
-------------0-
---------------
------00-0-----
--0--0---------
---------------
-------00------
------------0--
-----------0---
---------------
-------------0-
0----------0---
0-0-000--------
------00-------
--0-0----0-0-0-
---------------

Generation = 1, Population = 63.
------------0-0
------00-0---0-
--0---11--0----
-0-00--0-0-----
--0--0-00------
------0110--0--
-------00----0-
----------0----
-----------0-0-
0----------00-0
100-000---0-00-
1---1------0---
0------100-0-0-
-0---0000-----0
--0-0----0-0-0-

Generation = 2, Population = 66.
------00-0-0-0-
--0--0---------
----00-*00-0-0-
0--11---0------
------01-0--0--
--0---1--100---
----------0---0
-------000-----
0----------10--
1-0-000--------
*-1---10-0---1-
--00*-0000-1---
1---00--11-1---
-----1-1-0---0-
------00-------

Generation = 3, Population = 111.
--0---11------0
-0-0-1--0------
0-0----*11----0
-00*--0010-000-
0-0000-*01---0-
-0-0-0*-1-11--0
--0---00001--0-
0-----01-1-00-0
100-0000000*10-
--1-1----0-000-
.-----*-01000-0
-0--*0-111-*00-
-00----1-*-*00-
0----*0*01000-0
------1-00---0-

Generation = 4, Population = 68.
------**-----0-
-------01------
--10-0-.--000--
01-.--1--1-1---
-------.-----1-
---10-.----*00-
0-----1111-0--0
1---0-1*-------
------11---.---
1-*-*--00--1---
.01---*0----1--
11-0.10-**0.---
--100----.0.---
--0-0*1.1--1---
0-----*0---0---

Generation = 5, Population = 106.
-----0**----0-0
--00-1--*00000-
0-*1---*1-1110-
1*-.---01-0*-0-
00-00-0.-1---*0
0-0*10.1111*---
10-0-0-*-*-1---
*0-0--*.-1-0--0
--0--0-*---.---
-0*-.001100----
.---0-.-010--1-
*--1.*-1**-*0--
1--1-0---.1*---
0010-.-.-1-*0--
-00-0-*1--010--

*** Life<Cell> 15x15 ***

Generation = 0, Population = 24.
---------------
---0----0------
-------------0-
-0---0---------
-----0----0--0-
---------------
---------0--0--
---0---------0-
-0----0---0----
0-0----------0-
0-----------0--
---0-----------
----------0----
---0---------0-
---------------

Generation = 1, Population = 74.
---0----0------
--0-0--0-0---0-
-0-0-0--0---0-0
0-0-010---0----
-0--010--0-00-0
-----0---00-00-
---0----0-00---
-00-0-0--00---0
---0-0-0-0-0---
10-0--0---0---0
1000-------0---
0-0-0-----0-0--
---------0-0-0-
--0-0-----0-0-0
---0---------0-

Generation = 2, Population = 61.
-------------0-
------0---0----
-----1----00-0-
---0---00------
---0---001-1-0-
-0-0-1-------1-
-0---000--11-00
011--0-----0-0-
0--10----1--0--
--0-0------0-0-
*11---0---0---0
1010-0---------
0-------0------
-0-0-0-----0---
----------0----

Generation = 3, Population = 94.
------0---0-0-0
-------0-01----
---00--000-1--0
--01010---0----
-00-010-1*---10
01-1-*--000-0--
---001-100*--11
-**--1-0-0-101-
1-0*----0-00-0-
--10100--0--0--
***-0--0-0-----
*1*1----0-0---0
100----0-0-0---
------0-0---0--
-0-0-0---0-----

Generation = 4, Population = 64.
-----0----1----
---00--10---0--
------------00-
---*-*---0---0-
---------.0--*1
1-0*-.--1----1-
0----*--1-.-0-*
-*.0-*-1-1---*-
-01.--0---1--10
--*1*-1--1-----
*..-1---01--0-0
.-.*---0-----0-
-1--------0---0
0-00---0-0---0-
0---------0-0--

Generation = 5, Population = 100.
---0--0000-00--
--011-0*10101--
----01-000-1--0
--0.-.0-0------
0-0--1--1*-10**
*-1.0.-0*00--*0
1-0-0.0-*-.1--*
-*.--*0-0----.0
1--.0-1--1-00-1
1-*-*-*0-*--00-
..*0*00-1-00-0-
.1..--0--00---0
-----------0-0-
10110-0---0----
1000---0-------

*** Life<Cell> 15x15 ***

Generation = 0, Population = 23.
--------0------
------0----00--
-----0---0-----
--------0--0---
---------------
------------0--
-0-------------
----0-----0----
---------------
-0-------------
---0---00--0---
-0----0--------
----0----0-----
--------0----0-
---------------

Generation = 1, Population = 71.
------00-0-00--
-------0000110-
----0-----0-0--
-----0-0--0-0--
--------0--00--
-0---------0-0-
0-0-0-----0-0--
-0-0-0---0-0---
-0--0-----0----
0-00---00--0---
--0-0--1100-0--
0-0000--00-0---
-0-0-00---0--0-
----0--0----0-0
--------0----0-

Generation = 2, Population = 59.
-----01-010----
----0----11*-10
---0----0--0---
---------010-0-
-0---0---0-----
----0---0--1--0
---0-----------
-10---0-0------
-1-0---00--0---
-0-10-0---0----
-0--1-0--11--0-
-0-11--------0-
--01--1-0------
-0--------00---
----0----0-----

Generation = 3, Population = 98.
-----1*-1*---00
------0-0-**-*1
--0----0-00-0-0
-0-0-0--------0
0-0---0--1---00
-0-----0--0-00-
-0----0----0--0
0-10-0-010-0---
0-01--01-0--0--
0-----1-0-1--0-
0-00--111*-0010
010--0--000-010
-01--0---000-0-
0--00-0-0-110--
-0-0-0--0--0---

Generation = 4, Population = 69.
----0**--*-00--
--0---101-.*1.*
-----0--01-0-0-
-------0--1-0--
--------0------
-1----0-0--11-0
-1-0---000-1---
11---------1--0
----0----1-----
-0---0--1---01-
-0-11----.-11--
-*1-11---------
0----1--0----1-
-0--1---10--1--
---10--010-1---

Generation = 5, Population = 101.
--001**--.---00
-0-000---1..-..
--0-0--0-*01---
-----00-0--0---
-0----0-1100--0
0*00-0-0--0-*--
----0--111-----
*-100--01-0*00-
0--1------00000
01010-10-----*0
0-0*-0--1.1*---
-**1--0-0--001-
-01-0*101-----0
--0-*---*-1----
-00*-001*------

*** Life<Cell> 15x15 ***

Generation = 0, Population = 23.
-----0---------
---0---0--0----
---------------
---00----------
---------0--00-
----0--0-0--0--
00--0----------
---------------
-----------0---
-0----------00-
-0-------------
---------------
--------0------
----------0----
---------------

Generation = 1, Population = 76.
---00-00--0----
--0-000-00-0---
----0--0--0----
--0110---0--00-
---0---00100-10
00-0100--1001--
110010-0-0--0--
00--0------0---
-0--------0--0-
010---------110
010---------00-
-0------0------
-------0-00----
--------00-0---
----------0----

Generation = 2, Population = 71.
---1-0-1-------
-0-01---11--0--
-----0---0--00-
-01**10--10-1--
00--0--1--1---1
--01*110-*11--0
*--1--0--1-010-
-1--1--0-0---0-
0---0----0---1-
---0------00--1
---0----0--0---
-1--------0-00-
-0----0---1----
--------1---0--
--------0------

Generation = 3, Population = 114.
-00*0----0--0--
0---*0--*-001--
--0-01-----0110
---*.*1-0---*-0
1-00-00*01--01*
--1*.-*--**---1
.--*1-100-0----
0-0-*0----00--0
----10-001-00*-
0-01----0-1-1--
-1010--0-001-00
0*00--0-0010110
010--0-000*0-0-
-0----00*000-0-
-------010--0--

Generation = 4, Population = 64.
-1-*--------10-
----.-00.111*-0
00-0-*---------
0-1...-01---.--
---1---.1--0--*
00-..-.00.*11-*
.-0.-0--11-----
---0.----------
-------11*--1*-
-1--00-01-*-*11
0---10---------
-.-------------
----0-----.10--
-1----1-.-1-010
-0------*------

Generation = 5, Population = 105.
0--.0-01-00--1-
0---*-11.*--*0-
-10--.--00001-0
10-**.11-1-0.-0
-0--0--.-1-1-1.
11-..1.11.***-.
.--.1-1--*-01-0
----.0-0----00-
-0-0100-**-0-.-
--01-----0.-***
---1--000-0-000
0.---0-----01--
-1-0-00---.*--0
0*0-00-0.0-0--1
010---00.00-000

*** Life<Cell> 15x15 ***

Generation = 0, Population = 24.
--0------------
0-----0---0----
------------0--
0---0----------
---0-0-----0---
-00----0--0----
0--0-----0-----
0--------------
0--------------
----0----------
0-----0-0------
---------------
----0----------
---------------
---------------

Generation = 1, Population = 57.
00-0--0---0----
-00--0-0-0-00--
----0-0---00-0-
-0---------00--
00--0-00----0--
-110-00-0------
1---0--00------
-0-0-----0-----
10--0----------
---0-00-0------
-0--00---0-----
0---0-0-0------
---0-0---------
----0----------
---------------

Generation = 2, Population = 54.
1-0-0-------0--
--1---------1--
--00-0----11--0
-10----0-------
11---0-1----10-
0--1-1--10--0--
-000---1-------
01--0--0--0----
*-00--0-00-----
0-0---1--------
--0---0-0-0----
----1----------
0-0-----0------
---------------
----0----------

Generation = 3, Population = 96.
--1--0-----010-
00--00----0-*00
--11--00-0**-0-
------010-00000
---001-*-0-0-10
11-*-*00*1001--
1----00*-00-0--
--00-0-1---0---
*0-1-01011-----
1----0-0-00----
0010001----0---
0--0-00---0----
---00--0-0-----
0-0-0---0------
---0-0---------

Generation = 4, Population = 65.
1--0-10----1*--
111-1--0--1-.-1
0-**----01..--0
--0-0---1------
110----.-1-----
-*-*0.1-.-11--0
*-0-011.0---10-
--1------------
*10*-1-----0---
-00----10-1----
1--1-----00-0--
1--------------
--------0------
----1----------
0---0-0-0------

Generation = 5, Population = 87.
*---0*1----*.00
*-----------.0*
10..0----*..-01
---0-0-1*0----0
**----0.---0--0
1.-.-.*0.-**---
.010---*-00-*1-
----0-0-0--000-
**-*--101---0--
1--0-01*10*-0--
*---0--0-1---0-
*0-0----000-0--
0---0--0-0-----
0--0*00--------
-0-01----0-----

*** Life<Cell> 15x15 ***

Generation = 0, Population = 22.
----00---------
-----------0---
---------0-----
---------0-----
00--0----------
-----0--0------
---------------
----------0--0-
--------00-----
---------------
--00-----------
-----0---00----
------0--------
--0----------0-
---------------

Generation = 1, Population = 73.
---0110----0---
----00---00-0--
--------0100---
00--0---010----
1100----00-----
00----00-0-----
-----0--0-0--0-
--------0--00-0
-------011---0-
--00----00-----
-01100---00----
--000---0110---
--0----0-00--0-
-0-0--0-----0-0
--0----------0-

Generation = 2, Population = 66.
--01**10-0-----
-------------0-
00---0-0---1---
-----0-01------
*--1--0--1-----
---0--11-1---0-
00--0---10-----
-----0-----11--
--00--01--00---
-----0---1---0-
01--110-01-----
--11----1--100-
--100---0------
0---00---000---
------0--------

Generation = 3, Population = 127.
-01-**-1--0--0-
00000-0--0-00-0
110-01-1--0-00-
-0-0010-*--0---
.10*0-10-*0--0-
-001-0-*0-0-0-0
110---0-*-0000-
0000---000--*0-
-011001*1-1--0-
0000-100-*-00-0
1*--**1---000--
0---0000--1*-10
00-1---01-0-00-
-00--1---1-10--
0---0--0-000---

Generation = 4, Population = 62.
---1**1-0------
----1--00--1---
----1--------1-
-----*--*-0----
**1.-----.-----
-1--0--.-1-01--
--10----.0-----
-----00--10-.10
01---1*.----01-
--1--*--0*---0-
*.--..*0-------
-0---11--1*.--1
--1-----*01----
0-1---0--*-----
--00--0--------

Generation = 5, Population = 114.
--1****110-0---
-------1-00-00-
---0*--1--010-0
000--.00.--0-0-
***.00--0*000--
-*0--0-.0*-1*0-
--*1-00-*--0000
00000--00-11*-1
1*--0*.*1-101*-
---00*0-1.0--10
.*1-...1--0--00
----0*----*.-1-
0-*1-0-0*--0--0
-----110-*-----
00-10010-0-----

*** Life<Cell> 15x15 ***

Generation = 0, Population = 23.
---------0-----
---------------
-0-------------
---------------
00-0-----0-----
----0----------
-------------0-
-0-------------
-0-------------
---------0-----
-0---------0---
-------0--00-0-
-0----------0--
-------0-00--0-
---------------

Generation = 1, Population = 60.
--------0-0----
-0-------0-----
0-0------------
0--0-----0-----
11------0-0----
00---0---0---0-
-0--0-------0-0
010----------0-
010------0-----
--------0-00---
0-0----0-0-100-
------0-001-0-0
0-0------0---0-
-0----0--110--0
-------0-00--0-

Generation = 2, Population = 55.
-0-----0-0-0---
---------------
10-------------
----0----------
*-00-0-0---0-0-
-10---0--------
0--0-----0-0---
---00----0-----
-*-0-------0-0-
-0--------1--0-
---0-----1--11-
-----0-01-*01--
-0-0------00--0
-----0--0**100-
-0----------0--

Generation = 3, Population = 89.
0-0---0-----0--
0------0-0-0---
*10-0----------
-00----0---0-0-
.1-10-0-0-0---0
0*-0-----0---0-
---1--0-01--0--
010110--010--0-
0.-1-----0---10
010-----------0
-00-00-0--0---0
-0--0--1*0.1--0
0---0--0--110--
---00-001*.*11-
0-0--0--000-1--

Generation = 4, Population = 68.
1--0-0---0---0-
----0----------
**---0---0---0-
-1-------------
.-0-1--0-0---0-
1*------01-----
---------*-0-0-
-----1-0--10-1-
-.0*-0---1--0--
-*--00-0-01----
-1---1-1-----1-
-1-0--0*.1.*-01
-----0--00*---0
---1-011*...-*0
---------110*--

Generation = 5, Population = 107.
-00-0-0-0-0-0-0
-0---0---------
**0---0-0-0-0-0
-*--00-0-------
*1---00-010-0-0
**--0---1*00---
00---0-0-*01-10
--011*--01*-0*0
-.1*0-0-0*0----
0*--11-1--*000-
0-00-*0-0-011*-
0*--001*.*..---
-0--0100-1*--0-
--0-----....-*-
---0-000-*--*-0

*** Life<Cell> 15x15 ***

Generation = 0, Population = 24.
-0-------------
0-------0---0--
--0-0--0-0-----
---------00----
---0--------0--
---------------
--0----------0-
--------0------
-------0-------
--------0--0---
---------------
0---0--0-------
-0-----0-------
--------0------
---------------

Generation = 1, Population = 63.
--0-----0---0--
--0-0------0-0-
00---00-01--0--
--000--00-100--
--0-0----000-0-
--00--------00-
-0-0----0---0-0
--0------0---0-
------0-0--0---
---------00-0--
0---0--00--0---
---0-0010------
--0-0-01-------
-0-------0-----
--------0------

Generation = 2, Population = 75.
-0100--0-0-----
0-1---0--00---0
11000110-*-01--
0------1---1---
-0--10-0-11--10
--------000----
0--10--0---01--
------0-0-00---
--0--0---0---0-
0---0-00011--0-
-0-------------
0----11--0-0---
---0-0---0-----
0---0-00--0----
-0-----0-------

Generation = 3, Population = 123.
-1*-10---1----0
1--0--10011-00-
*-1---*--*0-*00
1000----0--*-00
--00*1-10---0*1
00-0-0-011--000
-00*10--000-*0-
0-000--0-01--0-
00-0--000100010
--00-01--**0010
0-0-00-00-00-0-
---00-*101--0--
--0-010101-0---
-----01-0--0---
--0-0--10-0----

Generation = 4, Population = 67.
-**0*1-0-*--0--
*-1-----------0
*1*0-1*-0.-0.--
-----00-1--*-11
-0--.---1----.*
1----------01--
0-1.*-00----.1-
1------1-1*-0--
-1-----1---11--
----0--00..-1--
--1----------1-
0-011-.----0---
-0-0-*-*---1---
----0------10--
-0-----*-------

Generation = 5, Population = 109.
-**-**---.00-00
*--00-1001-000-
*-*1--*-1.01*0-
1-000----01.-*-
--0-.101*1--0.*
*-0-0-001-01*-0
---..-1-0000.-0
*-0-0----**01--
--0-0-0--1-**1-
-000-01-1..-*--
00*----00--0--0
-0-**-.1--0100-
--01-*-.0-0----
----------0-10-
0-0-0-0.0--00--

*** Life<Cell> 15x15 ***

Generation = 0, Population = 24.
00--------0----
--0----0-0--0--
---------------
-----0-------0-
-----0-0-------
---------------
------------00-
------0----0---
-------0-----0-
---------------
----------0----
-----0---------
-00----00------
------------0--
---------------

Generation = 1, Population = 70.
11-----0---00--
0--0--0----0-0-
--0--0-0-0--00-
----0100----0-0
----01--0----0-
-----0-0----00-
------0-----110
-----0----0----
--------0--00-0
-------0--0--0-
-----0---0-0---
-00-0-000-0----
0110-00110--0--
-00----00--0-0-
------------0--

Generation = 2, Population = 72.
-*00----0-0-1--
1---0--0-001-10
00---1-1--0----
--00-----0-01--
---0-*-0-0--01-
-----10----0-1-
-----0----00-*1
----0---00---0-
-----0---00110-
-----00----0---
-00---------00-
---0---1----0--
1--1011--1-----
-----0----0---0
-00----00------

Generation = 3, Population = 112.
-*-1-----010--0
*00---0101-*0*1
-1-0---*0010000
0-1-0---0101---
---1-*0--100--0
---00*1--0-10--
-----1--0-1--**
---0-0-01-0----
-----1-----*--0
-00-0-10-0-10--
011--000-----10
00-1-0--00-01--
-11--**-1---0-0
0000-1-00--0-0-
0110-001100---0

Generation = 4, Population = 78.
-*0-0-00------1
*-10-01*1*-.1.*
0*-----.--*-11-
-0----0----*-0-
0--*-.-0-*11-1-
--0--.-0-1--1--
--------10*--*.
--0----1--1--0-
-000-*--00-*-0-
------------1--
------1-----0*1
-1----0--1-1---
1*-10*.1---010-
--------1---0-0
-**----**-1----

Generation = 5, Population = 123.
-*-1-0---0--10*
*--101*.-*-**.*
-.-0-1-.0-*0---
0110-1---10.1-0
---.0.-1-*--0*0
00---.110-0--1-
-------0*1*0-*.
--1--00-10*-0-0
0111-.0-110*110
-000-01-00--*00
-1---0*0-0---**
-*010-1-0--*1-0
**-*-**--10-*1-
0-0001-0*00-10-
0..0--0**--00-0

*** Life<Cell> 15x15 ***

Generation = 0, Population = 22.
-----0---------
----0---0------
----0----0-----
---------------
-------------0-
-0-------------
---------------
0---0-------00-
00-------------
---00----------
------------0--
00--0----------
------0--------
---0----0------
---------------

Generation = 1, Population = 68.
------0-0------
---01--0-------
---010----0----
----0----0---0-
-0----------0-0
0-0----------0-
00--0-------00-
1--0-0-----0110
-100--------00-
000110------0--
00-0-------0-0-
1100-00-----0--
00-000-00------
--0-0-00-0-----
---0----0------

Generation = 2, Population = 63.
---000-0-0-----
--0-------0----
--0--100---0-0-
-0--1---0------
----0----0-0---
1--00-------01-
11-----------1-
*0-10-0---01--1
0-11--------1--
--1--10-----10-
11----0---0---0
*--10-1-0------
----1---1---0--
0---101---0----
------0--------

Generation = 3, Population = 88.
---1-1---------
-01-1-0------0-
--10-*-1------0
0--0*-0------0-
00---0-------0-
*-01-0---0--1-0
*-0---0---00-*-
.-0-1--0-01*---
11---0----0-*-0
--*-1*-0--00-1-
-*-00--000-00--
*-0*--*-100-0-0
-------0*000-0-
-0-0---000-00--
0---0-10--0----

Generation = 4, Population = 65.
-0--0--------0-
01----------0--
0----.--0----0-
1---.-------01-
11---1---0---1-
*0-*-1--0------
.---0----0--0*-
*-1------1-.-11
**1-010-----*0-
00*1-*-1-------
-*------1-----0
.11*-0*-*---10-
000-----.-1----
-------11---1--
------*-----0--

Generation = 5, Population = 111.
-101-1--------0
--1-1---0--0-0-
-----.-1-0--010
----.0--00-01*0
*-000*0---0--*0
*--.0*00-0--1--
*10------1001*-
*0*1-00-0*1.1**
..*11*1--0-0*--
--.*1*0-----110
-.0---0-*0--0--
.***-1.-.000*1-
11---000*0-0-0-
000----**000*0-
-----0.-0--010-

*** Life<Cell> 15x15 ***

Generation = 0, Population = 22.
--0----0---0---
-----0-------0-
0-0----------0-
---------00----
---------------
---------------
-0-------------
-----0---------
---------------
--0-------00---
----------0----
---------------
-------0--0--0-
--0-0----0-----
---------------

Generation = 1, Population = 68.
-0-0-00-0-0-00-
0---0-00---0010
---0-0---00-010
0-0-----0110-0-
---------00----
-0-------------
0-0--0---------
-0--0-0--------
--0--0----00---
-0-0-----0-10--
--0------01----
-------0-----0-
--0-0-0-0--00-0
-0---0-00----0-
--0-0----0-----

Generation = 2, Population = 63.
----01-0---0---
---0---1-001---
----0--0-------
-----0-01--101-
000----------0-
-----0---00----
---0-----------
--00---0--00---
-0--------1----
0---00--01--10-
-------00-*-00-
----0----000---
-----0--10011--
0-0-0-01---0---
-------0--0--0-

Generation = 3, Population = 109.
----1*-100-10--
--0-000--1--0--
------0--00-01-
000-----*11*--0
1-10---00000-10
00000-0-0110-0-
---100-0-0-0---
--1-0-0-00-10--
---000-00-*-00-
---0110--*01--0
0----001--.0--0
---0---00---00-
0-0-0---*11-*0-
-----01--001-0-
0-0-0--100--0-0

Generation = 4, Population = 67.
--00-.0*---*-0-
-0---1---------
00--0-10-1-0-*-
------0-.--.-11
--*----1---1---
--1--0----*1-1-
000--1----0--0-
-0--------0----
-------1--.--1-
0-0-*--0-*1---1
-0----1--0.1--1
-----0----0----
---0--0-.*-1.10
----01*-011*-1-
-------*-----0-

Generation = 5, Population = 112.
--111.1.0-0.--0
-1-0--0--1-----
1-00-0-1-----*-
000-0010*1-.0-*
-0.0-0--0--*0-0
0--00100-1*--*0
11-10*0--0--010
-1---0-0-011---
000-0-0*00*-0--
-0--.1-1-**---*
----0---01.-00*
-0-00-0--0-0-0-
--0--010*.-*.-1
----1-*11*-*---
----00-*-000010

*** Life<Cell> 15x15 ***

Generation = 0, Population = 23.
-0-------------
----0----------
---0-----------
0----0---0-----
0--00----------
---0----0-0-0--
------------0--
----0----------
-------0----0--
0--------------
----------0----
-------0---0---
---------------
0-0------------
---------------

Generation = 1, Population = 61.
0-0-0----------
-0---0---------
0-0--0---0-----
10----0-0-0----
100-1---000-0--
0-01---0----10-
---00---0-0010-
---0-0-0-------
0---0-0-0--0-0-
-0-----0--0-0--
0------0-0-----
------0-0---0--
0-0----0---0---
---0-----------
0-0------------

Generation = 2, Population = 64.
-0-------------
0-0--10--0-----
1--001---------
*-0-0---1-100--
*1-0-00-----1--
10--0-0-00--*-0
0--11--0--1-*-0
0-01--0-0-0-0--
-----0---0--0-0
0-0-0--1---0---
-------10------
--0--0-------0-
----------0----
--0-0--0---0---
---------------

Generation = 3, Population = 96.
-----00--0-----
10----100-0----
-0011---00000--
*0--1000--*--0-
.-0--1-0-00--00
*-01101011-0*-1
-----00-0-*-*-1
1-1----0-01--0-
---0---0----1--
------0*-00---0
0---000-10-0-0-
-0-00-000-0-0-0
----00-0-0---0-
-0---00-0---0--
--0-0--0---0---

Generation = 4, Population = 64.
00--01---------
*--00-----1-0--
11-----0----1--
*-0--1---0.--1-
*-1-1---0------
.-----*1*--1*0-
---1----1-.0*0*
-----0-101-00--
0---0---0--0--0
0--00--.0-1-0--
------1-----0-0
---11--1---0---
-------1----0--
0---0-1--------
----------0----

Generation = 5, Population = 101.
-10--*0---0-0--
.001---0-0--10-
**-1110-0000*--
*010--00--.---0
.-*---0-1--01--
.-0110.-*10-.--
--0-1000--.1.1*
1--1---*-*-1---
10--1------110-
1001-00*1--010-
0----0--1-0-1--
--0**0-*0-0-0-0
0--0---*0----0-
-0-0------0-0--
0---0-0--0-0---

*** Life<Cell> 15x15 ***

Generation = 0, Population = 23.
--0------------
---0-0---------
----0--------0-
-------------0-
---0------00---
---------------
--0---------0--
--0---0-0---0--
-------0-------
------------0--
--0------------
---0-----------
-----0---------
0---0--------0-
---------------

Generation = 1, Population = 64.
-0---0---------
----0-0------0-
------------010
---00-----00010
--0-0----01100-
--00------000--
-010--0-0--010-
-010-0-0-0-010-
--0------------
--0----0---0-0-
-0----------0--
----00---------
0--0--0------0-
-0-0--------0-0
0---0--------0-

Generation = 2, Population = 64.
0-0----------0-
-0-0-0-0-----1-
---0--0---0----
---1-0-----1---
-01-10--01-----
--1---0-0---10-
0--10--0---1--0
0-----0-0---*-0
-----0---0--0--
--10--0-0-0-0-0
0---00-0-------
00--11------00-
--01---0-------
0--1--0----0---
-----0---------

Generation = 3, Population = 103.
-0---0-0----010
--01--0-0-0-0*0
-00-00---0---1-
-0-*01--00--0--
01-0*--0-*1100-
0-*----01---*1-
10-*100-0-0-1-1
10-00--0----*-1
0-000-0-0--0-0-
00*1-0-0-0--1--
1-0---0---0--00
-1----0----0110
--1--0--0--000-
-0-*0-----0-0--
0--00------0---

Generation = 4, Population = 71.
0--00-0---00-*-
-0-*-0-0-0---.-
0-------01--0*-
--0.--0-11--11-
--1-.-01-.----0
--.0-0------.--
*-1.*-1-1----0*
*-111-0-0-0-*0*
-----0----0----
1-.-0---0----00
*-1---1-----0--
--0---100---*--
-0-----0-0-----
--0.----00--1--
--0--0---------

Generation = 5, Population = 108.
--0-10----11-.0
0--*0-0-01-00*-
--00-00--*00-*0
001.-110--01---
-1*-.--*-.--0--
0-*-0-001---.1-
.-*..0*-*00---*
.----01-1-1-*1*
--000----0100--
*0.1--00-00--11
.-*000*----01-0
0-10-1-11--0.1-
0-1----1-10----
--1.-0--1-00-0-
-0100-0-00--0--

*** Life<Cell> 15x15 ***

Generation = 0, Population = 24.
------------0--
---0-0-----0---
---------------
----------0-0--
0----0--0----0-
------0----0---
---------------
-0-------------
----00-----0-0-
----0--------0-
---------------
----0--0-------
---------------
---0-0----0----
---------------

Generation = 1, Population = 68.
---0-0-------0-
--0---0---0----
---0-0----000--
0----0--00-----
-0--0--0-000--0
0------00-0-00-
-0----0----0---
0-0-00-----0-0-
-0-0-10---0--10
---01------0010
-------0-----0-
---0-00-0------
---000-0--0----
--0---0--0-0---
---0-0----0----

Generation = 2, Population = 76.
----------0-0-0
-0-0-0-0-01-00-
0----1--0---10-
---0-10-1-0-0-0
0-00--01--11---
-0--0---101-11-
0---0---0--1---
---01-0----1-1-
--01--10-0-0-*-
-00-*-00---1---
----00-----0-1-
--010-1--00--0-
---------------
-0-000--0---0--
---------------

Generation = 3, Population = 105.
-0-0-0-0--1-10-
-----1--01--1--
----0---1--0*--
---1---0*-1010-
-01----*0-**000
0---100-----**0
-----0001--*---
0-----1-000--*0
----01*------.0
01-0*0--000-0--
-0--1100-0-1-*0
-01--0-0011-010
-00--00-000-00-
0--1-100-0-0-0-
-0-000--0---0--

Generation = 4, Population = 64.
0----1-------10
-0-0-*0--*-----
------------.--
-0----0-.------
-1*-00-.--*.---
--00*1-0--10..-
-----------*---
-0--10-0--1-0*-
-0---**0----0.1
1--1.10-1111---
-------------.-
01-1----1--0---
----01-----0-1-
-0-*0*11-10--10
---------------

Generation = 5, Population = 95.
---00*---0--1*1
-----*100.1--00
---0-1---0--.--
01--0--0.-1----
0-.0---.-0**---
----.---10--..-
-000------0.-0-
0100*-1100-1-*-
-101-..--0--1.-
--0-*--0*--*--0
-0---10--00--.-
1*---0-0-11101-
0--0---000-1-*-
0--*1.-*-*1-0-1
-0-00000-00--00

*** Life<Cell> 15x15 ***

Generation = 0, Population = 21.
-----0---------
----------0----
---------0-----
0--------0-----
-0-------------
-0-------------
---0-0-0-------
0----0---0-----
----0------0---
-----0----0----
-0---------0---
---------------
---------------
--------0--0---
---------------

Generation = 1, Population = 57.
----0-0---0----
-----0-----0---
0-------01-----
--------010----
-10------0-----
0100-0-0-------
000--1--00-----
-0-0-1000-00---
0--0-0---0--0--
-0----0--0-0---
0-0--0------0--
-0---------0---
--------0--0---
-------0-00-0--
--------0--0---

Generation = 2, Population = 66.
---0-0-0-0-----
0-------00--0--
-0---0-0---0---
000----0--10---
-----0-0-1-----
---1-1---------
---00--0-1-0---
0101-*----11---
-001-100-1-0-0-
0--0-0-001--0--
---00----0-0-0-
-----0--0-01---
-0---------1---
------0--11--0-
---------------

Generation = 3, Population = 118.
0-0-----010-0--
---0---01-0--0-
01--0--1-1-1---
1110--0-0-*-0--
010001-1---0---
--0*0*0----0---
00-1110---010--
1*1*0*---0**00-
0-1*-*--0*010-0
----010--*00-0-
0-0-10-001010-0
-0-0--00-01*00-
0-0--00-000*00-
-0---0-00**-0-0
------0--00--0-

Generation = 4, Population = 46.
---------------
-0----0---1---0
---0-0-*-----0-
*-*-0----1*--0-
-*--1------1---
-1-.-.---------
---*---0-------
*.*.1.----..-1-
10-.-.-01.-----
------1-0.-1--0
-0-0-----------
0----0---1-.---
----0------.---
----01-11..01--
-0---------0---

Generation = 5, Population = 101.
-0----0---0---0
0-00-----0-0---
01--0-0.01--01-
.1*01--00**-010
-*-0*1---1--00-
0*0.0.-0---0---
00-*--0-0----0-
*.**-.--0-..0-0
-1-.0.-1-.-1-00
0--0-1-01.0-00-
----100-01-1--0
---0--0-0-1.---
0--010-000-.0--
-0-0-*-**..-*0-
0-0-00-00-01---

*** Life<Cell> 15x15 ***

Generation = 0, Population = 23.
----------0----
-0----00----0--
---------------
-0-0-----------
----0----------
0-----------0--
---------------
---------------
-----0------0--
--00-00--------
----0---0------
0--------------
-0-------------
-0--0---0------
---------------

Generation = 1, Population = 67.
-0----00-0-00--
0-0--0110-00-0-
---0--00----0--
0--------------
00---0------0--
-0--0------0-0-
0-----------0--
-----0------0--
--0001-----0-0-
-0110-100---0--
0-0---00-0-----
----0---0------
-10-0---0------
0100-0-0-0-----
-0--0---0------

Generation = 2, Population = 65.
--------0-0-1--
-0--01--101---0
----0-----0----
1--0-000-------
--0---0--------
0100------0---0
----00------1--
0-00-10-----1--
---11--00-0---0
-1-*-0-11------
-01--0----0-0--
00-0100-1------
---01---1------
1-11------0----
-1-------------

Generation = 3, Population = 112.
-0--00-0101--00
0-00-*11--*000-
00--10000-10--0
-0--01110-0----
--10--1---0---0
1-11-00--0-000-
-0-01-----00*00
--1---1-0-00*00
00-**1-----000-
0*1*01---0--0-0
-1*0---0-0---0-
1-0-*11-*00-0--
-1-1--00*00----
-1*-----00-0---
---0------0----

Generation = 4, Population = 59.
----1-0-------1
1-11-.**1-.1--0
----------*----
-1---*-*-------
0----0--0-1-0--
-1-*01-00---1-0
----*---0---.--
00-0--------.--
---..---00----0
-.*.1-11110-1--
0-.-0---0---0--
--1-*---.------
-*------.---0--
1-.1--0-----0--
-1--0---0------

Generation = 5, Population = 102.
0-0---1-1--0-0*
--**-****0.-001
0000-00-00.---0
--0-0.-.----0--
-0-0--101---100
---*1--11000*--
0--0.---10--.-0
11-------0--.-0
000*.-0-----00-
0..**-*--*1-*00
-1.0-00-1-0010-
1---.1--.------
-*-11-0-.--010-
-1*--0-00--010-
--0--000-0--0--

*** Life<Cell> 15x15 ***

Generation = 0, Population = 24.
-0------00-0---
---------------
0----0---0--0--
---------------
---------------
---------------
-0-------------
-----0--0------
----------0-0--
----0----0--0--
---------------
0---------0--0-
-----0---0-----
----0--0--0----
---------------

Generation = 1, Population = 70.
0-0----011--0--
00---0--0--00--
-0--0-0-0-00-0-
0----0---0--0--
---------------
-0-------------
0-0--0--0------
-0--0-00-00-0--
----00--0---10-
---0-0--0--010-
0---0----00-00-
-0---0-----00-0
0-----000-0--0-
---0--0-0--0---
----0--0--0----

Generation = 2, Population = 74.
10-0-001**0-10-
---------------
0100----101---0
---------------
00---0---0--0--
-----0--0------
---0------0-0--
---01-11-11-1--
-0------1-0-*-0
0-0--1001--1-10
-----0---11-1--
0-0----00001---
---0-------0---
0-0--01-100-00-
-----0---0-----

Generation = 3, Population = 116.
*1---1--**1-*10
--0--000----000
1--10--0*-*0-0-
--00-0--0-0-0-0
110-010---00-0-
00-00100--0----
--01-0000-1-10-
-00-*-**0**--00
---000-0*010*01
-0-00-----0--*-
----01--0-----0
-----001-11----
--0-0000--01-0-
----0-*-*110110
0-0-01---1--00-

Generation = 4, Population = 73.
.*--0*--***-**-
--------00-----
-10-10--*-*1-10
-----1--1------
-*------00110--
----1----0--0--
00-------0--*--
01--.-..-..-11-
-----10-.1--.--
0---11-0--1--.0
-0-------------
--0-011-0*---00
-0---1---01-01-
0--0--.0***1*-1
-----*---*-----

Generation = 5, Population = 101.
..001.01*.*-..0
--0----01-000-0
1*1-*-00*0**-*1
--0--*00----000
1.0-01-0-1---0-
0--0-1-------0-
--0-0---0110*--
--0-.0..-..0-*0
-0----1-.---.01
---0*-0-1--1-.-
------00011--0-
-0--1**-1*----1
---0-*-001-1--0
--0-0-*1...-*1-
0--00.00-*-00-0

*** Life<Cell> 15x15 ***

Generation = 0, Population = 25.
---0-----------
-------------0-
---------------
--0---0------0-
----0--0--0----
-0--0----------
------------0--
---0-----------
-------0-------
--------0-0----
--0---0--------
---0--0----0---
-------00------
0-0-0----------
---------------

Generation = 1, Population = 74.
--0-0--------0-
---0--------0-0
--0---0--------
-0-000----0-0-0
-00010--00-0-0-
0-0010-0--0-0--
-0-00------0-0-
--0-0--0----0--
---0--0---0----
--0---0----0---
-0---0100-00---
----001-0-0-0--
0-000--110-0---
-----0-00------
0-0-0----------

Generation = 2, Population = 55.
-0-0-0---------
--0---0----0-0-
---00--0--0----
01--1---0--0-0-
--1--10-11-----
-------------0-
----1---------0
----10--0-0----
--0--01--0--0--
--------0-010--
0--------------
000--1---01--0-
--1--0---10----
---00------0---
-------00------

Generation = 3, Population = 95.
0-0--------0-0-
---00---------0
00-1-0---0-0---
1*--*-0-1-----0
0--0-*1--*00---
--0-100-00--0--
---0*---0-0----
--00---0-0-00-0
-0-0--*00-0-10-
0-0--000-01--0-
1-0--0--00-000-
---00*1-0--00-0
0-*--10-1----0-
---11--000--0--
---00-0110-0---

Generation = 4, Population = 67.
----0-----0----
-0--1----0-----
---*--------0--
*.00.-1--00--0-
1----.*01.-1--0
00---1----0--0-
--0-.-0-1-----0
--11---1---1-0-
---10-.-1-10---
101-0-1-----0-0
*-1---1---0-1--
--01-.----1----
--*00--1---00--
0-----0---0----
--0---1**------

Generation = 5, Population = 106.
-0-010-----0---
0-0-*0--0---0--
00-*--0---00---
.*1-.0*--11----
--10-**-*.0-00-
-1--1-00-0--0-0
0-1-.--0-000-0-
-0------0--*---
000--0.---*--00
---01-*00---1--
*0--00*0-01-*00
001--.10-0*----
00*111--1-0110-
-0-1101000--0--
00-0-0-*.00----

*** Life<Cell> 15x15 ***

Generation = 0, Population = 25.
-------0--0----
---0----00---0-
---------------
0-----0--------
---------------
---------------
------0--------
------------0--
-----0-----0---
---0-0----0----
----0-----0--0-
-----0--00-----
0---------0--0-
------0--------
---------------

Generation = 1, Population = 64.
---0--0----0-0-
--0-0---11--0-0
0--0--0-00---0-
-0---0-0-------
0-----0--------
------0--------
-----0-0----0--
-----00------0-
---0010--------
--0-010--01--0-
-----0--0-100-0
0-----00110----
-0---00-0--00-0
0----0-0--0--0-
------0--------

Generation = 2, Population = 64.
-----0-0000-0--
00---0-0--0----
-------0--0----
0-000----0---0-
------1--------
0-----1-----0--
----01--0--0---
---0-1--------0
---11-10-00----
-0-0---0-1-----
0-0--10-1-*-10-
-----0-----0---
0-0-0---1-0110-
----01---0-----
0---------0--0-

Generation = 3, Population = 115.
00--01-------0-
110-01-----00--
-00000010-10-0-
--1-10000---0-0
--0000*0-0--00-
-0--0-*00----0-
0---1--0-00---0
--01-*-00000-0-
-00**1*---10--0
--01-1010*1-00-
-0--0-10-0*0*10
-----1----010--
----10-0-01*-10
--00-*0---000--
-0--00-----00-0

Generation = 4, Population = 66.
---0--0----0--0
---01*-01---10-
------1*--*----
----*-----0-1--
-----1.1--00---
-----0.-100--1-
--0-*--------0-
0----.0--1----0
01-..-.0-0*--0-
-0-----*-.*---0
0-------1-.1.*1
-0--0*---11--0-
--0-*10--1-.-*1
--11-.1--------
0---1----------

Generation = 5, Population = 93.
--01----0-0----
--0--*--*10-*1-
---0--**-0.0-0-
---0.-0--0-0-0-
-----**---11-0-
--0--1*-*---0*0
00--.-0-0-0-01-
1-0-0.--0*---0-
--0..-*1--*00-0
010---0*-.*--01
-0--01----.-**-
---0-.----*-0-0
--10.*-01*-.1**
00-*0.*0-0---00
-00--00--------

