*** Life<Cell> 9x9 ***

Generation = 0, Population = 3.
---------
---------
---------
---------
---000---
---------
---------
---------
---------

Generation = 1, Population = 10.
---------
---------
---------
---000---
--01-10--
---000---
---------
---------
---------

Generation = 2, Population = 12.
---------
---------
---000---
---------
-01*-*10-
---------
---000---
---------
---------

Generation = 3, Population = 28.
---------
---000---
--01-10--
-00-0-00-
01-.-.-10
-00-0-00-
--01-10--
---000---
---------

*** Life<Cell> 5x5 ***

Generation = 0, Population = 9.
-0--0
--0--
000--
00---
-0---

Generation = 1, Population = 12.
0--0-
00100
-1-0-
-1---
-10--

Generation = 2, Population = 11.
1--1-
-1--1
--01-
0--0-
0-10-

Generation = 3, Population = 11.
--0--
---0-
0-1--
110-0
1-*-0

Generation = 4, Population = 15.
-0---
0-1-1
11*-0
*-1-1
*1*-1

Generation = 5, Population = 9.
----0
1-*-*
*-*--
.----
*-*-*

Generation = 6, Population = 8.
1-011
*-.-.
.-.10
.---1
.-.-.

Generation = 7, Population = 7.
*-1-*
.1*-.
.-.*-
.---*
.-.-.

Generation = 8, Population = 7.
.0*-.
.**-.
.1**-
.---.
.-.-.

Generation = 9, Population = 8.
.-*1.
*..-.
.-.*0
.110.
.-.-.

Generation = 10, Population = 12.
.0.*.
..*-*
.1.*1
.*--*
.1*0.

*** Life<Cell> 20x20 ***

Generation = 0, Population = 38.
------0-------------
-------------------0
---0-0-0--0-------0-
------0---0---------
-------0-------0-0--
-----0--------------
---------0--0-------
---------0-----0----
--------------------
-00----0-----0------
-------------------0
0-0-----0-----------
----------------0---
------0--------000--
----0--0------------
----------0---------
-0---0-------0------
---------------0----
----0---------------
--------------------

Generation = 1, Population = 118.
-----0-0-----------0
---0-000--0---------
--0---0-0010-----0--
---0---0-010---0-00-
-----0--0-0---0---0-
----0-00-0--0--0-0--
-----0--0100-0-0----
--------010-0-0-0---
-00----0-0---0-0----
0110--0-0---0-0----0
00-----00----0----0-
---0---0-0------0--0
0-0---0-0-------1---
----00--------01110-
---0-0--0-0----000--
-0--00-0-0-0-0------
0-0-0-0---0-0-00----
-0--00-------00-0---
---0-0---------0----
----0---------------

Generation = 2, Population = 107.
---001010-0-------0-
------1---1------0-0
-0-0--1-11--0--001--
----00------0------0
---0---0--1-00-0-010
---0--11-10----1----
----------11--01-0--
-00--0-----0-----0--
---------1--0------0
--*100--1--0--------
----------------00-0
-0--0--1--0--0-010--
----0--0------0---00
0-0-1-----0--01*-*10
-00---0--0---0--1---
------0-0---0---00--
-----------0---1----
----------0--1---0--
-00--10------0------
---------------0----

Generation = 3, Population = 198.
--01--1-1-10--------
-0--0-----*00--0-10-
0-----*-**-01001--0-
-0-011-00010----0--1
--01-0-10-*--1-1-1--
--0100*--*1-00--0-00
-000-000----001--10-
01100-0--1-1--000100
-0-00-----00-0---00-
-1.--100--0-----00--
-000-0-00-00-0------
0-00100*00-00-01*---
0000-0010----01010--
-01-*000---00-**1**-
-1-00010-----1--*000
-00--01----------10-
------0-0----00-----
-00--00--0--0*000-0-
01100*10--0-0100-0--
-00--00------00-0---

Generation = 4, Population = 106.
--1*-1---------0-00-
-----0----.----1-*-0
-0-0--*0..-1*-----1-
--0---0--1*---00----
---*--0---.--*------
--1---.1-*---1-----1
---1---10-1--1--0-10
1-*--01-0-0*-0-----1
--0----0-------001--
0-.------0-0---01---
--1-0--1-0--0--0-0--
1-1---1.-10-1--*.---
-1---1------01------
-1--.--1--011-..-..-
0--11---0--0----.--1
0-1---*-0-----0-----
-----0----------00--
------1----0-.-110-0
1----.-10-----------
----------0----0----

Generation = 5, Population = 183.
-0*.-*1-------01--1-
-00-01-0--.00-0*-*--
0-0-0-*1..-*.00-----
---0-1--0**-0-110-0-
--0*001---*-0*-1---0
-0-1--**0*--0-0-0--*
0-0-00---1*-0-11--*1
--*-01*-1--*-100-1-*
-010-0---10--00-1*00
-1.-0---11----01-0--
-0*--0------100-0-0-
-0*01--.0-1---0.*0--
-*--0--1-0--1*10----
-*10*00--01*--..-..0
1--**01-10-1--0-.-0-
1---0-.-10-0-0-001-0
0-0-0-0-0--0--0---00
0-------0-0-0.0**---
-1---.-*1000----00-0
0------000-0--0-0---

Generation = 6, Population = 180.
0-**-**----000--0--0
--1----10-.-101.-.--
-0101-.-.*-..111011-
0-01-*0-1**01--*1---
--1.-1---0*-1.-*0--1
---*00.*-.10-11--0-*
-011--010-*111*---.*
1-.0--*--10*0---0*-.
0-*1-1--0-1-0-1-*.--
0-.--1-0*---001*-100
01.-0-0--000*-101--0
11.----.-1-0-0-.*1--
0.00----010-***1-0-0
-*-1.1---1-*-0.*-..-
*--..1---10-0---*--1
-01---*0*------1-*-1
----1------1--11--1-
1-0-0-1--01--*-.*-0-
1-1--.1.-11-----11--
------0-1-0100--1--0

Generation = 7, Population = 188.
--**-.*-1-111--1-01-
0--001-*1-.----.-.00
-1-1*-*1..-..-**1-*0
-01-1*1-*..----.*-01
00*.---1--.-*.-.--1*
-01.--.*-.*--------*
-1-*---*11.-***10-..
*-.-0-*-1*-.1--0-*0.
--*--*--11*0-0*0..00
--*1-*01*---1--.-*--
1-.0-0-----1.--1-0-1
*-.01-1.---1-10..-0-
1.1-01-11-1-...-11--
0*1*.*0----.-1.*-.*-
*10.**-0--11---0*-0*
-1*00-*-*-000--*0*0*
00-0*0-000--0-*---*-
*-1-1-*00---0.-.*010
*-*00.-.--*-0--0**-0
0-0--01--0---100*-0-

Generation = 8, Population = 182.
00**-**1*-*-*00--1--
---11*-.-0.01-1.0.1-
-*1-.-.-..-..1.*--.1
-1-1-.--*..-1-1.*-1*
1-..01-*--.0..-.01-.
-1-*--**-*.0-1110--*
-*1*---.*-*1****1-*.
.-*--1*0*.-.*10-0*-*
00*--.0-***1-1*-..-1
01*--*--*-00--1*1*--
*1.-01010-0*.0---10-
*1*----*0--*-*1*.1--
-.*----**---**.-**0-
1.-...110--*1-**1.*-
.-1...---1---101.01.
1*.11-.-.0-1-0-.1.-.
----.1---1----.--0.0
*0*--0*1--10-.0..1*-
*-*--.-.1-.-1---..-1
1-1--1*01----*-1.0--

Generation = 9, Population = 187.
1-**0**-*0*1*--1----
0-1--*-*--*1--*.-*--
0**1.0.-..-*.-..1-.*
-*1--.--...--0-.*0**
-0.*1*1*-0*1..-.1*-*
-*1*--**0*.-0-**1--.
0***00-..1**....*1**
*1.-0**-..-..-10-*0*
-1.1-.10...-0-.-..0*
1-.1-.0-.11110-*-*-0
.*.01*-*1--..11--*11
***010-.11-*1.-*.-0-
-.*0---..1-0...1..-0
-*-...**--1*--..-..0
*--*..10-*1---1-.1-.
*****-.-*----1-*-.0.
--00.*-00*---0.--1.-
*-*01-**--*1-.-..-.0
*1*0-.-.*1.---00**--
*-*00**--0---.--.-00

Generation = 10, Population = 195.
*-**-**1*-.**0--01--
-0-1-.1*--.*-0.*-.10
-..**1*1..-**1.**1.*
-.-11.10...-1-1*.1.*
1-..-**.0-****0.*.1*
-.*.00..-..0--..*00*
-...1-0..-**.*...*.*
.*.0-..-..0*.1*10.-.
0*.*-.*1..*-1-.-..-.
-1.--.11.*--*-1.-*--
...1*.0*-00..-*11**-
*..-*-1*---***-**-10
1..--10*.*1-...*..-1
-*-*..**01-*1-..-.*1
*1-***--1*------.--.
*....-.0.00-0*0.1*-.
--11.*0-1*-101*10-*0
*0.-*0*.00**0.0*.-*-
*-.10.-.*-.0-11-**--
*0.1-*.0-10--.01*-11

*** Life<Cell> 30x30 ***

Generation = 0, Population = 55.
------0-----------------------
--------------------0-0-------
-------0-----0------0---------
-----------0--------0---------
-----------------------------0
0-----------------------------
--------0---------------------
------------------0------0----
--------------0---------0-----
-0-0--------------------------
------------------------------
--------0---------------------
0--------------0--0-----------
----------------00------------
-------0------0----0-------00-
----------0----0-------------0
-0----0--0--0-----------------
--0------------------0--------
------------------------------
----------------------0-------
-------------------0----------
-----------------------------0
----------------0---------0---
----------------0--------0----
---------------0-------------0
------------------------------
-0-0-0------------0-----------
---------0--0------------0----
------------------------------
------------0--------------0--

Generation = 4, Population = 191.
--0----1--0--0------1--------0
0---------------0-*-*-*-0-0---
---0--.-1*-.----11--1-.-1-----
-------1-----.-10-*0.1--00----
------1-------1-----1---01-0--
-0010---------------*-0-------
----0--1----01------0---------
--------1--0--1-----010------1
1---------0----1----1-------00
00---0-1--------11------------
-------01-----*----1-------00-
----1-----0-0--0--0------0---0
-10-0-0--0-01------1--0-0-----
-110--------00*-----0---------
---0--.---10---**-1-----1-.-*0
------1-*--0.-1-.--1--1--1-.--
100-----.-0.-1-11-1*----------
0-----1---------1-----.--0---0
-------1------0-0--*------000-
----------0----01-0------11--0
-0----0--0--0----------0-----0
--0-------------.----0---0-0--
-0-0-0------0--.--0-1-1------.
---------0----------001--0---1
-----------0-------------1-0--
------------0--------------1-0
-----0-*-1----0-0-----0---0---
-----0--1-.-*0-------0---0-0-1
---------------0-------------1
--------1*--0---0------0-0---0

Generation = 8, Population = 305.
*-----1**-*-------*-.0.0*-----
*1-0---.-1--11**11.1.0*-.*--0-
--.--..1.*-.10-0..1-.-*-1*.-10
---.---*0*--0.*.1-.**--1.1--1-
0------.--111.*-0-.-.--.*.----
-*-.-*1.*1----.0*-01.*01------
-------1---*-.1-1-*1*-0----00.
*1--.--*-------0-0--1--.--0*-.
*-----11-0--0-0---**.-.-----*-
0-10.-1..--*---1.*-..**-------
.---1*--.---0-.11.--.----..-*-
0-11.1.1.--01-1-----0-1----10-
--*-11-----1.1-*00-*---0--*.-1
*..*----*0---0*11--*----101-.*
*.-*.-.*-0*-1*-..1101-0-*-.*.-
-*.-*-10.-1-.1.1.*1.-*1.-.-*1*
-0*--1-0.1-*1*-.*-..1*--*----.
.--0.-.--1.-000-10--0-..1---11
10-1-*-*01.----11.0.0*0--1--.-
------.--1--1-0----1-*1-1.**-1
1----.--.--1---0*-.*-.---0-01*
------------0--*.0.--**0-----1
-------00--.---**-0*.1*1**-1-.
--------1-0-*----1.---1-1.-1--
-0----1--1-----------0-00.**-.
--0--.-1-.*0-..------0---.-.--
-----.1.01-0--*.--0------*0.-*
-0--1-.1-**-.*-..---0-0-----0*
-----.--10-0-111---1-------*-.
----1-0*****-.--*--10-------0.

Generation = 12, Population = 382.
.0-*-*...1.1**-..0*1.**..-*1-*
...*--1.-.01****-..-.0*1..-1*1
*0*0-*....1..-0*..*1.-.1...0..
**-.---.1.--0.***-.*.**.*.1*.0
00-*-...-**-...--1.1..-...-*-*
-.-.0.....**1-.**0-1..*.---.-*
--1-***.-*1.*.*0.*.*...100--*.
*.-1.-0.-1-.*--0.00*.**.---..*
*-.--1---**0-0-.-1...1.0101*.1
*1.-.1.*.-..*1-...1.**.001*1-0
.*11.*-.***-...-.*11.*0*1*.1.*
--*..-.-.-.---.-0.-*-----1-*0*
-1*1**.--0*..*1...-**-*-00..-.
..**1--*.0*1-...1*0*--10.-.0*.
.*-**-*.-*.****.*-.-**-0.-...-
1..-.1...-.*.1.-..1....*0.-.1.
.-**--01.*.*.*-..-..-.1*.---*.
*--..0.--1.1--**.--.-1.*.--..*
.--**.-.-*.00**.1.-.-.---**-.1
-1-1--.0*.-*..-.*-1*1.--*...1.
*.---.-0.-111100*1..-..000-0**
--11----..1-1.-.*-....*1-----*
**--1-1*--*.-0-*.-......*.1.1.
-0----1-*0--.-*-1-..*-*--.*1--
110-*-*-0-1-1-00--.1---**...-*
*--1-.0*-..-0..--01011-1-*-.**
-.-*-.*.-*010-..*0-**1-0.*.*-*
01-.*......1**-..01---*0--**-*
-110-.*1--1---1*-**.10-01-1*1*
1*--.0-*..****--*111-*10--*10.

Generation = 16, Population = 355.
.--*-*.***.-..-..*.......-.**.
*.*.-.*.-.-*....-..-.0*-..-.*1
..*0**..*...*-**..*-.-*.*..1.*
.*1.0--.-.---***.-**..*.**...*
*0-.-......-***-1..-..-**.-.0.
-*.....*.*..1-**.*11..*.--*.-*
-111**.*0*1....*.*.*.*.*-*-..*
*.*1.--*-1*..*...*-.*****-.*..
*0.1*.**..*.-.-..**.*1.1.*.**1
*..-.1...*.*.1....***..--*..-0
*.***.-..*.-...1..**.*-...***.
-1*.**.-.-*-*-***.0*-1.1--0.0.
.*...*.1--**..**..0*...1--..-.
.*...-0...*.1...-.-.1-*-.1..**
.**.*.*.*.....**.-.1*..*....**
-**-.-.**-.*.-.**.-.*..*-.-*..
*1..*-..*..*..-.*-.......*--..
**1*.0.---.---...11*.1...*....
.-..*.-**..--....***1.-.-..-*.
1-..--.0..-..***.**.**11..***.
*.1-0*--.*1..*-1*...1.*1---..*
-*.*---0.*1-..***-.....1-*.--*
.*-01*-.--..*-0.**..***....*..
.00-01.*.***.-.*1....-.*1*.*0.
..*1.-...**-..-*-1..*.-**...1*
.0**-*1*-...0..1-1--.-1--*-..*
-.-.-..*.*-**1**.-**.1-1.**.1*
.**.....*..-.*0*.*11-*..1**.**
1.1.1**-..**-...-....0--.0..*.
..11.--*.*****-1****...-11..0.

Generation = 20, Population = 346.
.-*.1***...-..-......***.1....
...**.*.1.......-..-*.*.**1..-
**.*.*..***..****.*1*-*...*1*.
..-*100.**-1*.***-*...***..**.
.***-..****1..*11***.**...1.0*
*.*...*..*...-..*.-1....1*..-*
*.*...*.1*1.....*......*0*...*
...*..-.-**.**.*.**...*.*-....
***-...*****0.-......-...*...-
..*1*1.......-.*..*..*..-*..--
**.*..1.***-...*..*..*-.*.....
-1..*.***-.0.-.*..*.-.*..--.**
....*..1*1........*..**.--..**
*.*..1***...-...-.0..-*1.*...*
.*.....**......*.-.......*...*
.*.....*.1...-..*.1.*...-**.*.
..*..-.*.*...**.*-***....*-...
.****1.10**10-..*1..*1**......
.*...*-.***.0...*...1.**-*****
.**.-1.-****....*......*.***.*
.*1*-.--*.***.-*..**....1--.**
0***----..-1.***.-......-.....
.*10*.**--**.0.**.....*.......
*-0**1**.**..-.*.....1**....0.
.**-.-***..-..-*1..*..0..****.
*1***.-*1***1...0*1-.*-1-.*...
**-*0*..*.-.....*-.*.*.******.
.........*.1....*..*0...*.....
*.1....-....-..*-*...**1*0....
..-..--.......-***...**.*1....

*** Life<Cell> 40x40 ***

Generation = 0, Population = 94.
---------0------------------------------
------------------------------0----0----
---------------------------0------------
------0----0------------------0---------
-------0-------0---0--------0-----0-----
----------------------------------------
-0-------0-0----------------------------
--------0-------0------------0----------
---------0---------------------0--------
--0------------------0------------------
-------------------0--------------------
--0-----0-----------0-------------------
----------------0---0--------0------0---
------0---------------------------------
-------0-----------0--------------------
----------------------------------------
-------------------------0--------------
-----------0----------0----------0-0----
-----0----------------------0------0----
--------0---0---0-------0---------------
--------------------------0--0----------
0--------------------------------------0
---0------0-------0------0--------------
------0----0-------0--------------------
-----------------0----------------------
-----0---0------------------------------
---0-0------0-------------0-------------
-0---0---------00-----------------------
------------------------0----------0----
-------0-----0-----------------------0--
--------0-------------------------------
-------------------------------------0--
-------------------------------0--------
---------------000--0-------------------
-0--0-------------0--------------------0
-------0--0----------------------0------
-0-0----0---------0--------------0------
------------0---------------0-----------
----0-----------------------------------
----------------------------------------

Generation = 5, Population = 627.
----0---0---0---0-0-0------11000-01----0
-0---0-0---1-0-0---0---0-0--101-11-10-0-
0------00---0--00-----0-0---.1-10--0---0
------01.-----0-10-0----00-0.---10-0--0-
--0-0--00-0.--01--0-0001101.----.000-0-0
-------0-----0------0-000--0-11-0-0-0-0-
0-0-0------10---0-0-00---00-0----0-0----
-----0---00-0---0---0---0-0-00-.0--00---
0-0---0----00--1*-0.10----0**.0---*-10--
-----0---0-0-0----0-1--00-000-----000---
0-0-0---0-----0-010-0-0--0---1----------
---0---0-0--10-00--01---10--0-0000------
0---0-0-----10-0-0-0.-1010---001--00----
---0-0----1----00--0*1*-0---0--0-1-10---
------0----*--0---0--1-----0-0---0010---
-0---0-------0--*0--*----00-00------0---
0-0---00----0---*000-10-00*11*00---*----
---0-01-110-.-0--01-00--0-100*-1-1-.-*00
------010*1----000--0--0*1--0.1-*1---10-
-0-----0----0--0---*0-0-00-0-00001-.---0
--0--00-00--------10-010-.--00-00*0--0--
-0-01*-01--.-----0-----0----000-01000-0-
-00--11--00-*0-0-1--01--0-.1110--00-00--
011-1.0-*---*-0--.-----*-00-0-----------
0-00--0-000---01--.10-0-*-.00-0---0-00-0
*.-.-*.--1---0--1----00-000--00----00---
0.0*0101-1100--0---000-00-0--0-0-------0
-----.-001-0-0.-1110100--0--0-0-----0.00
---00.---0-00--0--00-0-----0-0---0---10*
-00*-*0---0-0-0*1-0010----0-0---0-0.--0-
0*-1--00--00-----0-00----0-0-----0----0-
0-0-01---0-0--0.1-------0-00-----0----0.
01--00-0-000---0-*--00-0100-----0.0--0-1
0--0000---0-0-1.-.---*-010---0---0-00.0-
*..-11-0-0---0*0.--0*--00---00---.0--.0-
0-0-01--0.---0-1-1----------0*00---1----
0-0-111--0----*--0--10-00---01-.----0-0-
0---00--10--0------0-000-0---0---.---0-0
*.0.----100-0--0---00---0---0---01----0-
00----0--0---0----0--------0-0--0-0----0

Generation = 10, Population = 670.
-------0-----0-0-0------0-..**-*--*0-1--
--010---0-----0*1-----*-1---.11-.1-*..*1
----011....--0-110---*---1-*.*-.1-..110-
-0-*-**..---1-.*-.*0*1-..-.*.*.-.001-1*-
-0-10-**.1-.*.-*-1--1-*..-..*..-.*1--1--
--010-..*0-----10-0*0-1------..-------1-
-------.*--.-0--1*-0**-*1*-*110*0----100
0-0-0--0**.0-01-.-10-0-0----.-1.*.*1--11
-0------01--00*...*...0*1.*...-.*-.-.*--
--0-0---00*-00----1.*.-1.-0*--111*11000-
-0-0----1--.*-1..---1*111.-...-*---.10-0
0--------0*.--001----*01*--0*.0*-10----0
-0-0--0----1110-0-1-.*1-.-.-..-.-...-.11
0---0----**-1*--..--..*-*-11-10--....-10
-0-0-0--01-..1-*1--11.-1-.-*-*-01--.*--1
--0101.-1-01-0--.11-.1*-0--1-.--01-.**11
----0**.1-1-.--*.----1.00-..**--0*-**.--
--*--*..*.*-..1*-*-.1*---*.1-*-.....-*.*
-*--1*..*.-.*.---0-*-01-*-1-*.**..0-.1-*
-.*-1-**00-1-1-.*-*.1-1--0-1--1*0.-****-
-*10-0.00**1*0000*..-..-..0*-..0-.-*0-11
-.1--*--***.*---1--1-.-.*----.0*0-010-11
-10-1-----10.-00****..1--0*...-1----0---
1..1-.1.**1-.**1..-*-*0*---.1--1-*-----0
-*..0.1*0*.----.-.*.*.**..*.*--.--0*-1--
*.**0..*--0.-.1*..-101-*.-*00--1---.0*10
*.**0*-.-**.*0-0*---.*-.*1.*0*00--.01-0.
.1*-*.1-0*0-.*...-.-.-*--0--11-0--0--...
-*-1*.1*01*----.-.1.0--1--.*-*1--.---*1.
010.0*0-10*010...**1*0----10-01--.-*-*01
*.-.-*0.1-*01-1-*-0-------1--0--0.-00--.
1*-.*1-10.-..1-.-1-*1--111-0-0-0-.1*--.*
..0*.11---*-1--1-.*0-0-.1----*0--.--1--*
---.10...-..1.*.*...-.1-..-11*-0-*.--..-
...1..-01-.--0.0.--*.0-1-00--.0*-.....**
.*....*1..*1-.1.-.-0*-0-0*--..-.*.-..-.0
--*0...-**..**.0*-.0**--..-10*-.*-1*-0.*
-110*----.01100*10.**-0--1-01..0..-0--1-
**-.-.1*.-*0.0--0-11.0--000-0-1--.1.111-
0--01*-1-110---.1-01*-0------0-*.-*010-1

Generation = 15, Population = 628.
0---*1*111---11**--.-01-.**...-..*.1**--
-*.*-0--1-*1--..1--.-1.-.1*1...-..-.***.
--1-1****..*-0-.**010.01*.-...-.*-.....-
**-......***.*....*1.--........-.-..1*.*
0...0*....*.**0**-1.-*...1*....0...0..**
-0-.01..*-.-0.*10-.**..1-.-0-..0*---0..-
-1--1-0*.-0...1-1.--..*.*.**-1*.1-*.*.-1
1--11.-*..**0-.*.--0*.-.1.*-*-......*-..
010-00*-.*-*11.***..*...*.*...1***....**
-0111*0-1***..11--*...**.1-....**.*-.1-0
--01*0*0*.-..1..*-.*-**11*1.**...-..-0-*
---**-*---**-1.-.*0--.-**.-.**-.1.-10.1*
-0--1--*-*.*...-1-*.*..0.**0*...-...*.-.
--*---.-0*.*-.--..-0..**.0.*-1*10....*-*
-00.-1.*0.*..-..*-1**.1*0.0*-***.-1***11
*1-.***..0..--.-...-.1.011..-.0-.*1..***
0*-0****-1-*.-1..1-*1*****....1--*-...**
10.*..**.*..**....-...1-...--.-..***0**.
-*-*1...***...--1.-*--*-.-.1.*.**.*-.**.
1....-.**-1.-.0..-*....*0--.-0.*-.*....*
..**--*-1....*---.*.-.**.*-*...*-.-*.-**
.*11..0......01.1*-.-...*-1*1.-**-1**1-*
-.-1*1**1..*.-1...*.*..1-.....-.1.--..-*
*.*-*.....1-...*****-.1.-.....-*-.--0001
-.....*....*-*1.-............*1.--1...--
**............*...0.*-...1..**-.-*..-...
**..-.0.*....-1-.*--..*..1....-*10*-..1.
**.0...*-.*-.....*...0.*0*1-*.-1-.**....
-.-*....-**10--......-0-*1..1..-1.-*-.-.
-.1.0.--***1*...**.-.*00-.-11---.*1*..-.
..-.-*1.*.*.-.1**-..-1*1*0.1-0-*-*--*--.
*.1**...*.*...**1**...-..*-0--1-0...1-*.
..****.-*-.0.1.*0..1.*1...--1.--..-..***
--...-.*.1*..*.**.....1*..-...**....*.**
*..-*.-*..*1*-.-.1..*---00**-**.-.....*.
..****.-.*..-.-.*.-..--1*.-....**.***1*0
10.-..*..****..0.-*...--..-...-..-.*--*.
.1.-.0.*..-..--***...-1.0..-..*0..-*--.-
.*-**.*..***..*01...*---.*--..*-1**.1**0
.-****..***-.-.*.-1.*-0-1**--0*..*.0.0**

Generation = 20, Population = 539.
-0.-..*-..*.......-.1**-*.....-.......-1
0**.--.*.1.....*1-1*-..-.-.....-..-...*.
-.**......*.-.....-.-*-**.-...-..1..**.*
*.*..***.*......***-.***.........-.**..*
*.*.-...**....-..*..-..*.......1*..1....
0-...1......-..*--..****..-1-**1*-*-*..*
-.*.**..*-.*.*.-..-1*...*..*..***1...*-*
.**...-.*.*.1-...*.-*****....*....*.....
-*-0*..-..*.*....**......*..*.**........
--*....*-**.*..**-........-..**.***.*..1
-*1....0.*-.**.*.*..*..-......*..0*.110.
10-..0*0.-..**.-..0-..-...1..**..**.0...
*-*-*.*.-*.......1.*...-.**1..*....*.*..
*-..*-..-*****--..*1....***.01*.**.....*
--*.-*....*..**..-...***-...-.**.1..*...
.*-....*.-...1.-*..-..*---.*-*--..1.*.**
-.--**...1-..--.*--*1.*.....**..1.-*....
-..**.........*..*.*..-1.**--.1.....-...
..-.......***.1.-.-*-1.1.1.1.*.....-*...
1....-*.******0**......*.0..-...1..*..*.
.....-.****.*..-**......*....******..*.*
**..**-......-1.**......**.**.*.**...**.
-*.*.......**-***......--....*1...*.*.-.
.......*.....***..*.1.-.0.....-**.-*.00.
-.**..*.*...-.1.....*........*.*1-*...--
.**...*.*...**....1..**...*...0.-*..*...
***.-.1.**....*1*.11.**..-.***-.-*....*.
*......*-*.-*.....***1*.-..-..-...**..*.
-......***...*-...*..1*.*1....**-*0.-.-.
.*.*-*.*..*......*.-..01-*-.**-**.-*.***
..1***....**-*-..1......*-.**-*.-.--*.-*
..1............*.*........1*01--**...*.*
*.*...*1*-*0.....**-**-*.**-*..***-...**
*-*.....*.**.......*.**.*.*.**..**......
*..-*****.**.1...-...*.*.0..-*.*0**.*.**
.***...-****..-......0***..*.**...*..*.*
*-.**....**.*..-.*....--..-*.......**-*.
**..*0........-*.*....*.0..-......-*-1..
..-.****...*...*-**..*.-...0*..****..*.1
.**...**...1*1...11..*-1...1.-.*...-*1*.

*** Life<Cell> 35x35 ***

Generation = 0, Population = 75.
----------------------------------0
0-------0--------------0-------0---
-----0----0-0---0------------------
----0--0--0---------------0--------
------------0-0----0---------------
------------------------0----------
------0-------------------0--------
---0-----------------------0-------
----------00---------0-------------
-----------------------------------
-0-0-----0-------------------------
0-----0-----------0-----------0----
---------0---0-----------0-------0-
---------0-----------0-------------
----------------------0------------
-----------------------------------
--0--------------------------------
-------0---0---------------------0-
----00-----------------------------
-------0--0------------------------
----0------------------------------
---------------0-------------------
-----0--------------------0--------
0----------------------------------
--0-------------------------0------
0----------------------------------
----0---------0-------------0------
-0---------------------------------
----------------0--------------0---
------------0-----0----------0-0---
---------------0----0--------------
--0--0----------------------0---0--
----0--------------------0-----0---
-----------------------------------
-----------------0-----------0-----

Generation = 10, Population = 531.
--000-**..-0--01-.**1.1-----0-0----
--1---.100--.101.--.---**.*-------0
01-----....0.-.--0*.1.--*--000.0-0-
0-----*-.-..0*---0--001--*0---*11-0
---*-*.01.0-00-..-1***..-*.0--.1---
.-.-*10-.111----*0-01--.1.-*-.-.-1-
*.1..-*-0*.-..-.0.-1---*.-*-.----01
-*1000-1*--..1-----*--1.-.0-0.-.**1
-.*.1**.*.*-..-1.--.11--*0.11--*001
---.*---***0-10-01-.--00-0.-01-*-1-
10..*0..*..*----..-10-.0--.0-0-1--0
*.11.-1.1-.*--.1-.01-*.10-0-1*01.1-
-0-0-.*--.**.*-0-1-0--.000-0-.11-1-
1--00.*---**-.*1-.----0.-----.11-.-
1.1.-00-1.11--*00-.0--0-.-1--0-10--
.0-1-**1*.1**.1----0-----.---.--0-0
*1***-*0-.-.----0-.01--00-0-0----.-
---.-.-**.1-0*-----*-1-1---1--*0---
0-...-.-...*..*0--0--0---*0-0-10-1-
-*.-...-..1.--1---00-0-0-1--1--00--
1-.0*1--*-*011.1----0-01---001-.-01
-1110-..*.1*-1*11-.100-0-1-010-*-1-
-.*1..1**-011-01-1.-0-0-0-----1.-1-
1..-..-1*00-11-------0-0--0-0--*1-0
----.1-0-1*100-1--*0.-00---0-*11.*.
-..*.01--10---.-**.-*-----0-*-0*1--
*1**0.**--1-1----.*011-1001*-1*0.-*
-1-*-*-0*.1**--.--*0-.-1-.**..-**.-
--*00.--.0-1.011*0*-.-1-1.1-1.-.-.-
1.*010-10*.--1*-*0*..11.0.*.*1-.**-
*-0**-.1.----.*-.-*1*-*0*--....-1*0
110.---*--0*--.1*0*11-01-100.1-*---
.0*-11.0001-.011..*1**-..-11**-.0--
.0*010-------11---*0*-0-1-0-.*0**1-
.0*0--10-0-0--11.-.*...--01-*.-*-1-

Generation = 20, Population = 471.
*--*..*..*.**.1......*.-.0...***-.*
****...*1*.**.....*.1-1.**..-...*-*
*.....*..*.-*...1..*.....-.*.*..-.1
*01-***-..****.1..*....*0***1**.*..
*.*...*..*..1*.........*.*.*......*
*..*.*--***.01.*.1..-0-...-...*..**
***..*.*0**..**.*..*--0.......--...
*....-...-..**.-*-0.1***-.....-..**
-*...*.*..*1*..*.1..***-....*-**.-.
**...-.....*.**.....1...1****.-.-**
.......**..*.*-.....*..*-*.*.*....1
**...***.*..*.....***.**1*.*..*.*.-
**.0....1..*...--.***.**.11*.*..-*.
*.*-*....-**...*1.-10--**..-.*1....
*.*.**..**.*0..-*....*.*..**-*..*.*
.*..1.*...**...-....1...*..-*.-...-
*....****...1***0*....**.-0..**.*.*
**-*0...******11.**.1**.-...-..1..*
....*...*..*..**1.1-.-......1*-*-.*
*.****.*.**..*****0...**1.-*.*...**
--.***...-***.*.-1*-.-.*0.*-.***0-*
....1**...*.***-*0*.-*1.1.0.**..1..
*.......**...*-***.-..*.*1.-....-..
-.**.*........*.*-...*.*.1..*...*.*
....*******1*.*.1...*-*0...0-.....*
..*..*...*.-..*....-*-.1.-*****...-
..***.**.1-..-**-..**.-.-....***...
........****.*-**.......1.....-*..0
11..-..1***..***...*....***.....-..
**.....-1..-.-.-.***....-**...-....
*.*.....*1..1**-.***.1.**-.*...-...
*...*.-...1.*1*-.1...*1.***1..-....
*...*****0..*...***.**...-*...-..--
.***.-**.....1.0*1...*..**-...-....
.-...1..--.-..-..******..*.1.*..-.-

Generation = 30, Population = 293.
.-............-..*......******.....
.......**.........*....*........*..
.........*.-...**.*....**1*...**...
.-.*....*......**.......-**.**.*...
..*...*..............*.............
......**....-..**.*................
.***...........**..*.*-.*..........
*..........*....**0*1*...***.*..***
***...**.****...**.**.*.....*...***
*.....**.*..**....**.**.*....*..*..
**.......*****....**.*.*........*..
...........**..........**..*....*..
...*..***...*...1.*.......*.....*.*
..*.*....**...**.*..1*...**-.......
.**.*.*.***.-.........*.*.*......**
.....***...................*.....**
.....*.*........*.**........*......
..*.*..**........***.**...*..*.....
.*..****.......*.....**.******1....
..*............***.*......1.*......
-*..*....-....*....*....**.........
.*.*.........******...1.**......*.*
.*.***.......***..*..*.*..*-.*...**
-.*.*.....**..*....*.*..**...*...*.
.....*.*.*...*.............-.*.....
....**.*.....*.....-.....-.........
............*****.....*............
..*.*.**.*.*.**.**....*...........-
.***...*.**..**.................-..
*.*.....*.*-..*.......*.-.....-....
*.*......*....*..*.....*.-.....-...
.*....*...-....*.*.**......-..-....
......*.........*.*..*...-....-..--
......*............*.*....-...-....
.-......--.-........*...........-.-

Generation = 40, Population = 220.
.-............***.......*****......
..............*..*......*....*.....
...........-....*.**.......*.*.....
**......................-..**......
**...............*...............**
............-......*...............
................**....-.........*.*
..................-..............*.
...*..*.*.......*.....**.........*.
.*...*...*......**....**...........
....**.........*.*............**...
*.**.*........................**...
.*....*......*..1.........*...***..
........*.......***.....**.*.......
.......*....1....*......**..*......
.....*.*......**.**.....**.........
.....**.......**...*...***.........
...............**.*..*****.........
...............**.....****.........
................*.*.**********.....
-........-.....*.**...*.**.*..*....
...**.*....***.......**...**...*.*.
.**...*....***........***.......*.*
.**...*....**.............*..**.*.*
..*.**......................*....*.
..*..*.............-...............
.***...........**..................
***.............**................-
***.*..**..**..*................-..
*..*...***.***..........-.....-....
.***...**.*..........*...-.....-...
...........***......***....-..-....
...........***.....**.**.-....-..--
....................***...-...-....
.-......--.-.........*..........-.-
