*** Life<ConwayCell> 20x20 ***

Generation = 0, Population = 20.
.*****..............
......*****.........
.*****..............
......*****.........
....................
....................
....................
....................
....................
....................
....................
....................
....................
....................
....................
....................
....................
....................
....................
....................

Generation = 1, Population = 27.
..********..........
......****..........
..****..............
..********..........
.......***..........
....................
....................
....................
....................
....................
....................
....................
....................
....................
....................
....................
....................
....................
....................
....................

Generation = 2, Population = 13.
...***...*..........
.........*..........
..*.................
..*......*..........
...***...*..........
........*...........
....................
....................
....................
....................
....................
....................
....................
....................
....................
....................
....................
....................
....................
....................

Generation = 3, Population = 10.
....*...............
...**...............
....................
..*.*...............
...**...**..........
....*...............
....................
....................
....................
....................
....................
....................
....................
....................
....................
....................
....................
....................
....................
....................

Generation = 4, Population = 10.
...**...............
...**...............
....*...............
....*...............
....**..............
...**...............
....................
....................
....................
....................
....................
....................
....................
....................
....................
....................
....................
....................
....................
....................

Generation = 5, Population = 11.
...**...............
.....*..............
....**..............
...**...............
.....*..............
...***..............
....................
....................
....................
....................
....................
....................
....................
....................
....................
....................
....................
....................
....................
....................

*** Life<ConwayCell> 10x10 ***

Generation = 0, Population = 41.
..****....
.*.....**.
...*******
....***.*.
..*.***.*.
....*..*.*
....*.*...
.....***..
..***..**.
***...*..*

Generation = 1, Population = 22.
..***.....
.........*
...*.....*
..........
........**
....*..**.
....*...*.
........*.
..***...*.
.**....**.

Generation = 2, Population = 24.
...*......
..*.*.....
..........
........**
.......***
.......*..
........**
....*..***
.***....**
.**....**.

Generation = 3, Population = 18.
...*......
...*......
..........
.......*.*
.......*.*
.......*..
.........*
..**...*..
.*.*......
.*.*...***

Generation = 4, Population = 10.
..........
..........
..........
..........
......**..
..........
........*.
..**......
.*.**..*..
........*.

Generation = 5, Population = 6.
..........
..........
..........
..........
..........
.......*..
..........
..***.....
...**.....
..........

*** Life<ConwayCell> 30x30 ***

Generation = 0, Population = 86.
...**.*****.........*.**.**...
..*.......*..............*...*
....***.......................
....***.......................
....***.......................
....***.......................
...*.....*....................
.....****.....................
.....***......................
......*.*.....................
....*............*.........***
....*...................*.....
...*.*...*..*..****....*...*.*
.........*..................*.
..*..*..*...............*...*.
.......................**....*
..**.............**...........
....*.............*...........
....**......................*.
..*...........................
.*..***.......................
..............................
....*.....*...................
..............................
..........................*...
..............................
.......................*.*....
..............................
..............................
..............................

Generation = 1, Population = 70.
...*...****.............***...
........*.*.............***...
...**.*.......................
...*...*......................
...*...*......................
...*..*.......................
........*.....................
....**..*.....................
..............................
......*.....................*.
.....*......................*.
...***............*........*.*
....*...........**..........*.
....*...**......**.........***
.......................**...**
..**...................**.....
...*.............**...........
....**...........**...........
...***........................
...*..*.......................
.....*........................
....*.........................
..............................
..............................
..............................
..............................
..............................
..............................
..............................
..............................

Generation = 2, Population = 66.
.......**.*.............*.*...
...**...*.*.............*.*...
...**..*.................*....
..**..**......................
..***.**......................
.......*......................
....**.*......................
..............................
.....*........................
..............................
.....**....................***
...*.*...........*.........*.*
................*.*...........
................**.........*..
...*...................**..*.*
..**...................**.....
..**.............**...........
.....*...........**...........
...*..*.......................
...*..*.......................
....**........................
..............................
..............................
..............................
..............................
..............................
..............................
..............................
..............................
..............................

Generation = 3, Population = 68.
.......**.....................
...**...*...............*.*...
.....****................*....
........*.....................
..*.**..*.....................
.......**.....................
......*.......................
....***.......................
..............................
.....**.....................*.
....***....................*.*
....***..........*.........*.*
................*.*.........*.
................**..........*.
..**...................**...*.
....*..................**.....
..***............**...........
..***............**...........
....***.......................
...*..*.......................
....**........................
..............................
..............................
..............................
..............................
..............................
..............................
..............................
..............................
..............................

Generation = 4, Population = 66.
.......**.....................
....**...*...............*....
....***.**...............*....
....*...**....................
........**....................
.....****.....................
......*.......................
.....**.......................
....*.........................
....*.*.....................*.
.......*...................*.*
....*.*..........*.........*.*
.....*..........*.*........***
................**.........***
...*...................**.....
....*..................**.....
..*..*...........**...........
..*..............**...........
..*...*.......................
...*..*.......................
....**........................
..............................
..............................
..............................
..............................
..............................
..............................
..............................
..............................
..............................

Generation = 5, Population = 61.
........*.....................
....*....*....................
...*..**..*...................
....*.....*...................
.....**.......................
.....**.**....................
..............................
.....**.......................
....*.*.......................
.....*......................*.
......**...................*.*
.....**..........*........**.*
.....*..........*.*.......*...
................**.........*.*
.......................**...*.
...**..................**.....
...*.............**...........
.***.............**...........
..**..........................
...**.*.......................
....**........................
..............................
..............................
..............................
..............................
..............................
..............................
..............................
..............................
..............................

*** Life<ConwayCell> 10x10 ***

Generation = 0, Population = 53.
..........
.*********
.*********
.*********
.****.****
.*********
.*********
..........
..........
..........

Generation = 1, Population = 22.
..*******.
.*.......*
*.........
*.........
*.........
*.........
.*.......*
..*******.
..........
..........

Generation = 2, Population = 43.
..*******.
.********.
**........
**........
**........
**........
.********.
..*******.
...*****..
..........

Generation = 3, Population = 24.
.*......*.
*.......*.
...*****..
..*.......
..*.......
...*****..
*.......*.
.*........
..*.....*.
....***...

Generation = 4, Population = 29.
..........
....***.*.
...*****..
..*.***...
..*.***...
...*****..
....****..
.*........
.....*....
.....*....

Generation = 5, Population = 7.
.....*....
...*......
..........
..*.......
..*.......
..........
...*...*..
....*.....
..........
..........

*** Life<ConwayCell> 10x10 ***

Generation = 0, Population = 45.
..........
..........
..........
..........
..........
.*********
.*********
.*********
.*********
.*********

Generation = 1, Population = 14.
..........
..........
..........
..........
..*******.
.*.......*
*.........
*.........
*.........
.*.......*

Generation = 2, Population = 26.
..........
..........
..........
...*****..
..*******.
.********.
**........
**........
**........
..........

Generation = 3, Population = 16.
..........
..........
....***...
..*.....*.
.*........
*.......*.
...*****..
..*.......
**........
..........

Generation = 4, Population = 20.
..........
.....*....
.....*....
.....*....
.*........
....****..
...*****..
.******...
.*........
..........

Generation = 5, Population = 12.
..........
..........
....***...
..........
....*.....
...*...*..
..........
.*.....*..
.*.***....
..........

*** Life<ConwayCell> 10x10 ***

Generation = 0, Population = 38.
.**..**..*
.*..***.*.
..*..***..
...*.****.
....*..**.
..**.*.*..
.*.*..**..
..*....*..
..*.*.*.*.
....**....

Generation = 1, Population = 31.
.**.*.**..
.*.**...*.
..**......
...*......
..*.......
..**.*....
.*.**..**.
.**..*..*.
....*.**..
...***....

Generation = 2, Population = 29.
.**.**.*..
.*..**.*..
..........
...*......
..*.*.....
.*........
.*...****.
.**..*..*.
..*...**..
...****...

Generation = 3, Population = 37.
.*****....
.*****....
....*.....
...*......
..**......
.**..***..
**...****.
.**..*..*.
.**....*..
...*****..

Generation = 4, Population = 30.
.*...*....
.*........
.....*....
..***.....
.*.**.*...
*..***..*.
*...*...*.
.....*..*.
.*.....**.
..******..

Generation = 5, Population = 25.
..........
..........
..***.....
..*.......
.*........
***....*..
...*...***
........**
..**....*.
..*******.

