*** Life<ConwayCell> 50x50 ***

Generation = 0, Population = 191.
.....*..............................*.............
..............................*...................
......*..........................................*
.*.................*..............................
.............*....*.................*............*
.*..*....................*..*..........*..........
.*.....................*.........*......*.........
..................................................
...............**............................*....
.........*.............*...*...*....*.............
.............*............................*.......
....*.....*.......*...........*...........*.......
....................*..**..*......................
.......*..........*...*...*...........*...........
.................*..........*.....................
....................*..................*..........
..................................................
.*....*......................*.....*......*...*...
.....................*......*................*....
.................*......*.......*...*............*
..................*.....*........*..*.............
....**...........*.*..............................
*.......*......*...*.....*..*.......*............*
..........................*....*..................
..............*......*...............*..*..*.*....
.......*...........................*..............
....*....*......*.*.........*.......*.....*.......
*..............*..................................
.....*...............*.......*........*...........
*.*...............**...*..........*..**...........
..................................*...............
.................*.......*....*...................
.*...*..*.*..................**..............*....
....................................*.......*.....
........*.....*......*.....**........*..*.........
...........................................*......
.....*.*..*....*.........................**.......
......*.*...*...............*.....................
..................................*...............
...........**.....................................
.........*.......*....*...*..*....*.......*..*...*
*.............................*...................
..............*...*...*..............*............
*....**....*.*.....................*.....*........
..*.*..............*......*............**.........
......*.............*.............................
.*................*....*.....*.*..................
..**...*.............*............................
...........*.*........*.*...............*.........
.....................*.........*...........*..*...

Generation = 10, Population = 18.
..................................................
..................................................
..................................................
..................................................
..................................................
..................................................
..................................................
..................................................
..................................................
..................................................
..................................................
..................................................
..................................................
..................................................
..................................................
..................................................
..................................................
..................................................
..................................................
..................................................
..................................................
..................................................
..................................................
..................................................
..................................................
..................................................
..................................................
..................................................
.....................................**...........
.....................................**...........
..................................................
..................................................
..................................................
..................................................
..................................................
.........................................**.......
......**.................................**.......
......**..........................................
..................................................
..................................................
..................................................
..................................................
..................................................
..................................................
..................................................
..................................................
......................*...........................
.....................*.*..........................
.....................*.*..........................
......................*...........................

Generation = 20, Population = 18.
..................................................
..................................................
..................................................
..................................................
..................................................
..................................................
..................................................
..................................................
..................................................
..................................................
..................................................
..................................................
..................................................
..................................................
..................................................
..................................................
..................................................
..................................................
..................................................
..................................................
..................................................
..................................................
..................................................
..................................................
..................................................
..................................................
..................................................
..................................................
.....................................**...........
.....................................**...........
..................................................
..................................................
..................................................
..................................................
..................................................
.........................................**.......
......**.................................**.......
......**..........................................
..................................................
..................................................
..................................................
..................................................
..................................................
..................................................
..................................................
..................................................
......................*...........................
.....................*.*..........................
.....................*.*..........................
......................*...........................

*** Life<ConwayCell> 75x75 ***

Generation = 0, Population = 195.
................*.............*...*........................................
...........................................*...............................
.........*...............*....................*............................
...**.....................................................*.....*..........
..................*..*.....................................................
.........................*.............*.*.................*...............
.........**..........................*.*......*............................
...*...........................*....................*......................
...........................................................................
........................................*..................................
...........................................................................
.....*....*...............................*...........*....................
.............*...................*................*...*....................
................*..........*...........................................*...
..*..................*.........................................*....*......
**.........................*..........................*....................
*.*.................................................*......................
.....*.......*..*.*........................................................
.....*...............*...........*...................*..............*.....*
...........................................................................
.................................*.........................*...............
......*.................................*.............*....................
.**................*.............*.........................................
....................................*.............*...........*............
........*...........................*......................................
.....................*................*....................................
................................*..........................................
..........*..............*.................................................
.......................*..................................*.........*......
..*........................................................................
.......**.........................*...................*....................
..*.............*..........................................................
...............*..................*...........*............................
...............................................**...........*..............
..........................*...................................*.........*..
....*.............**............*..........................*...............
*..*.............................*........*................................
......................................................*...........*........
.....*.........................................*.......*.............*.....
.......................................................*..*...............*
........*...................................................*..............
.........................................................................*.
....................*......................................................
...........................................................................
.............*......................*...................................*..
............*.*...*........................................................
...........................................................................
.......*.......................................................*......*....
...........*...............................................................
....................*...........*......*.*.*..................*............
.....................*.*................................*......*...........
..............................*..*...................................*.....
...........................................................................
....................................................*..............*.......
.*...*.......................*..........*..................................
...........................................................................
..........................................**...............................
....*..............*..................................*.....*...**.........
.......................*...................................................
...........................................................................
.............................*............*.............*..................
............................................................*..............
.............................................................*...*.........
........................*......................*...........................
.................*.........................*....*..........................
............................*..............................................
.....................................................................*.....
.....................*....*.........*...........................*..........
..........*..*..........*.............................*..............*.....
.................*.........................................................
..................................*..............*.........................
....*...........................*..**.....*................................
..........................................................................*
........*.....*.......*..............................*.*..................*
.......................................**..................................

Generation = 10, Population = 0.
...........................................................................
...........................................................................
...........................................................................
...........................................................................
...........................................................................
...........................................................................
...........................................................................
...........................................................................
...........................................................................
...........................................................................
...........................................................................
...........................................................................
...........................................................................
...........................................................................
...........................................................................
...........................................................................
...........................................................................
...........................................................................
...........................................................................
...........................................................................
...........................................................................
...........................................................................
...........................................................................
...........................................................................
...........................................................................
...........................................................................
...........................................................................
...........................................................................
...........................................................................
...........................................................................
...........................................................................
...........................................................................
...........................................................................
...........................................................................
...........................................................................
...........................................................................
...........................................................................
...........................................................................
...........................................................................
...........................................................................
...........................................................................
...........................................................................
...........................................................................
...........................................................................
...........................................................................
...........................................................................
...........................................................................
...........................................................................
...........................................................................
...........................................................................
...........................................................................
...........................................................................
...........................................................................
...........................................................................
...........................................................................
...........................................................................
...........................................................................
...........................................................................
...........................................................................
...........................................................................
...........................................................................
...........................................................................
...........................................................................
...........................................................................
...........................................................................
...........................................................................
...........................................................................
...........................................................................
...........................................................................
...........................................................................
...........................................................................
...........................................................................
...........................................................................
...........................................................................
...........................................................................

Generation = 20, Population = 0.
...........................................................................
...........................................................................
...........................................................................
...........................................................................
...........................................................................
...........................................................................
...........................................................................
...........................................................................
...........................................................................
...........................................................................
...........................................................................
...........................................................................
...........................................................................
...........................................................................
...........................................................................
...........................................................................
...........................................................................
...........................................................................
...........................................................................
...........................................................................
...........................................................................
...........................................................................
...........................................................................
...........................................................................
...........................................................................
...........................................................................
...........................................................................
...........................................................................
...........................................................................
...........................................................................
...........................................................................
...........................................................................
...........................................................................
...........................................................................
...........................................................................
...........................................................................
...........................................................................
...........................................................................
...........................................................................
...........................................................................
...........................................................................
...........................................................................
...........................................................................
...........................................................................
...........................................................................
...........................................................................
...........................................................................
...........................................................................
...........................................................................
...........................................................................
...........................................................................
...........................................................................
...........................................................................
...........................................................................
...........................................................................
...........................................................................
...........................................................................
...........................................................................
...........................................................................
...........................................................................
...........................................................................
...........................................................................
...........................................................................
...........................................................................
...........................................................................
...........................................................................
...........................................................................
...........................................................................
...........................................................................
...........................................................................
...........................................................................
...........................................................................
...........................................................................
...........................................................................
...........................................................................

*** Life<ConwayCell> 100x100 ***

Generation = 0, Population = 198.
......*..................*............................*.......................*.....................
...*................................................................................................
....................................................................*...............................
....................................................................................................
......................*.................................*..................*........................
..............................*...........................................................*.........
..........*....*....................................................................................
...........................................................*........................................
......................**.....................................................................*......
.......................................*.............*.................................*............
....................*.......*..........................*........................*...................
....................................................................................................
...........................*..........*.............................................................
.........................................................*..........................................
............................................................................*.......................
......*...............................................................*.............................
....................*...*...........................................................................
....................................................................................................
................*..........................*........................................................
................................................................................*...................
.................................*..................................................................
.........................................................*.*......*.................................
....................................................................................................
..................................................*...................................*.............
....................................................................................................
..........................................................................................*.........
...................................................................*......*........*..*.............
..........................*.........................................................................
......*................................*............................................................
...........................................................*........................................
....................................................................................................
..*......................................................................*.............*............
......................*...............................*...........................*.................
...........................................*.....................................................**.
.................................................................................*................*.
....................................................................................................
............................................................*.......................................
............................*........*...............*..............................................
.........................................................*.........*.....................*..........
..................................*...............................................................*.
....................................................................................................
..*.............*..................*.................*..............................................
........................*...........................................................................
....................................................................................................
............................................................*.......................................
.................................................................................*..................
....................................................................................................
.......................*............................................................................
...............................................................................................*....
..............*........................................*............................................
...............................*...............................................*....................
............*....................................*..............*...........*.......................
.................*...*............................*....................*............................
.................................*..................................................................
............................*......*.........................*...........*...*......................
........................................................................*....................*......
....................................................................................................
........*.........................................................*..............................*..
....................................................................................................
...................*........*.......................................................................
.................................*..................................................................
...................................................................................*......*.........
........................**..............................................*.........*..............*..
............................................................*.......................................
...................................*.....................................................*..........
...........*..*................................*....................................................
...........*................*.......................................................................
............*.......................................................................................
........................................................*.........................................*.
.................**................**.*................................*............................
....................................................*...*...........................................
..........................................................*.................*...*...................
......................*.............................................................................
.........................................................*..........................................
.......*.....................................*......................................................
................................................................*...................................
.....*..............................................................................................
.............*..........................*..........................................................*
.................................................................................................*..
.........................................*..........................................................
.............................................................................................*......
...*..........*............................................................*........................
...........*.........*...........................................................*..................
...................*...................*..........*.........................**......................
........*......................................................................................*....
..............................*.................*........*............................*.............
....................................................................................................
...............*...............*........................*...............*...........................
..........*..............*..........................................................................
.........*..............................*...*..............*........................................
.........................................*............*........*............*......*................
........................................................................*...*.......................
.........................*...*.....................*................................................
...............................*..*..........................................*............*.........
.................................................................................*..................
...................................................................................................*
..................*......*..........................................................................
....................*...........*..................................................*................
...............*............................................*.......................................
.................*..................................*...............................................

Generation = 10, Population = 4.
....................................................................................................
....................................................................................................
....................................................................................................
....................................................................................................
....................................................................................................
....................................................................................................
....................................................................................................
....................................................................................................
....................................................................................................
....................................................................................................
....................................................................................................
....................................................................................................
....................................................................................................
....................................................................................................
....................................................................................................
....................................................................................................
....................................................................................................
....................................................................................................
....................................................................................................
....................................................................................................
....................................................................................................
....................................................................................................
....................................................................................................
....................................................................................................
....................................................................................................
....................................................................................................
....................................................................................................
....................................................................................................
....................................................................................................
....................................................................................................
....................................................................................................
....................................................................................................
....................................................................................................
.................................................................................................**.
.................................................................................................**.
....................................................................................................
....................................................................................................
....................................................................................................
....................................................................................................
....................................................................................................
....................................................................................................
....................................................................................................
....................................................................................................
....................................................................................................
....................................................................................................
....................................................................................................
....................................................................................................
....................................................................................................
....................................................................................................
....................................................................................................
....................................................................................................
....................................................................................................
....................................................................................................
....................................................................................................
....................................................................................................
....................................................................................................
....................................................................................................
....................................................................................................
....................................................................................................
....................................................................................................
....................................................................................................
....................................................................................................
....................................................................................................
....................................................................................................
....................................................................................................
....................................................................................................
....................................................................................................
....................................................................................................
....................................................................................................
....................................................................................................
....................................................................................................
....................................................................................................
....................................................................................................
....................................................................................................
....................................................................................................
....................................................................................................
....................................................................................................
....................................................................................................
....................................................................................................
....................................................................................................
....................................................................................................
....................................................................................................
....................................................................................................
....................................................................................................
....................................................................................................
....................................................................................................
....................................................................................................
....................................................................................................
....................................................................................................
....................................................................................................
....................................................................................................
....................................................................................................
....................................................................................................
....................................................................................................
....................................................................................................
....................................................................................................
....................................................................................................
....................................................................................................
....................................................................................................
....................................................................................................

Generation = 20, Population = 4.
....................................................................................................
....................................................................................................
....................................................................................................
....................................................................................................
....................................................................................................
....................................................................................................
....................................................................................................
....................................................................................................
....................................................................................................
....................................................................................................
....................................................................................................
....................................................................................................
....................................................................................................
....................................................................................................
....................................................................................................
....................................................................................................
....................................................................................................
....................................................................................................
....................................................................................................
....................................................................................................
....................................................................................................
....................................................................................................
....................................................................................................
....................................................................................................
....................................................................................................
....................................................................................................
....................................................................................................
....................................................................................................
....................................................................................................
....................................................................................................
....................................................................................................
....................................................................................................
....................................................................................................
.................................................................................................**.
.................................................................................................**.
....................................................................................................
....................................................................................................
....................................................................................................
....................................................................................................
....................................................................................................
....................................................................................................
....................................................................................................
....................................................................................................
....................................................................................................
....................................................................................................
....................................................................................................
....................................................................................................
....................................................................................................
....................................................................................................
....................................................................................................
....................................................................................................
....................................................................................................
....................................................................................................
....................................................................................................
....................................................................................................
....................................................................................................
....................................................................................................
....................................................................................................
....................................................................................................
....................................................................................................
....................................................................................................
....................................................................................................
....................................................................................................
....................................................................................................
....................................................................................................
....................................................................................................
....................................................................................................
....................................................................................................
....................................................................................................
....................................................................................................
....................................................................................................
....................................................................................................
....................................................................................................
....................................................................................................
....................................................................................................
....................................................................................................
....................................................................................................
....................................................................................................
....................................................................................................
....................................................................................................
....................................................................................................
....................................................................................................
....................................................................................................
....................................................................................................
....................................................................................................
....................................................................................................
....................................................................................................
....................................................................................................
....................................................................................................
....................................................................................................
....................................................................................................
....................................................................................................
....................................................................................................
....................................................................................................
....................................................................................................
....................................................................................................
....................................................................................................
....................................................................................................
....................................................................................................
....................................................................................................

